EESchema Schematic File Version 2
LIBS:1801vm2-rescue
LIBS:power
LIBS:device
LIBS:transistors
LIBS:conn
LIBS:linear
LIBS:regul
LIBS:74xx
LIBS:cmos4000
LIBS:adc-dac
LIBS:memory
LIBS:xilinx
LIBS:microcontrollers
LIBS:dsp
LIBS:microchip
LIBS:analog_switches
LIBS:motorola
LIBS:texas
LIBS:intel
LIBS:audio
LIBS:interface
LIBS:digital-audio
LIBS:philips
LIBS:display
LIBS:cypress
LIBS:siliconi
LIBS:opto
LIBS:atmel
LIBS:contrib
LIBS:valves
LIBS:1801vm2
LIBS:1801vm2-cache
EELAYER 25 0
EELAYER END
$Descr A4 11693 8268
encoding utf-8
Sheet 1 1
Title ""
Date ""
Rev ""
Comp ""
Comment1 ""
Comment2 ""
Comment3 ""
Comment4 ""
$EndDescr
$Comp
L 1801vm2-RESCUE-1801vm2 U1
U 1 1 59D634FD
P 1900 2150
F 0 "U1" H 1850 550 60  0000 C CNN
F 1 "1801vm2" H 1900 3550 60  0000 C CNN
F 2 "Housings_DIP:DIP-40_W15.24mm_Socket_LongPads" H 1650 1550 60  0001 C CNN
F 3 "" H 1650 1550 60  0001 C CNN
	1    1900 2150
	1    0    0    -1  
$EndComp
$Comp
L GTL2010-RESCUE-1801vm2 U2
U 1 1 59D646C4
P 7750 1700
F 0 "U2" H 7750 950 60  0000 C CNN
F 1 "GTL2010" H 7750 2400 60  0000 C CNN
F 2 "Housings_SSOP:TSSOP-24_4.4x7.8mm_Pitch0.65mm" H 7900 1350 60  0001 C CNN
F 3 "" H 7900 1350 60  0001 C CNN
	1    7750 1700
	1    0    0    -1  
$EndComp
$Comp
L GTL2010-RESCUE-1801vm2 U3
U 1 1 59D6471B
P 7750 3500
F 0 "U3" H 7750 2750 60  0000 C CNN
F 1 "GTL2010" H 7750 4200 60  0000 C CNN
F 2 "Housings_SSOP:TSSOP-24_4.4x7.8mm_Pitch0.65mm" H 7900 3150 60  0001 C CNN
F 3 "" H 7900 3150 60  0001 C CNN
	1    7750 3500
	1    0    0    -1  
$EndComp
$Comp
L GTL2010-RESCUE-1801vm2 U4
U 1 1 59D64771
P 9900 1700
F 0 "U4" H 9900 950 60  0000 C CNN
F 1 "GTL2010" H 9900 2400 60  0000 C CNN
F 2 "Housings_SSOP:TSSOP-24_4.4x7.8mm_Pitch0.65mm" H 10050 1350 60  0001 C CNN
F 3 "" H 10050 1350 60  0001 C CNN
	1    9900 1700
	1    0    0    -1  
$EndComp
$Comp
L GTL2010-RESCUE-1801vm2 U5
U 1 1 59D647E3
P 9900 3500
F 0 "U5" H 9900 2750 60  0000 C CNN
F 1 "GTL2010" H 9900 4200 60  0000 C CNN
F 2 "Housings_SSOP:TSSOP-24_4.4x7.8mm_Pitch0.65mm" H 10050 3150 60  0001 C CNN
F 3 "" H 10050 3150 60  0001 C CNN
	1    9900 3500
	1    0    0    -1  
$EndComp
Text GLabel 3000 750  2    60   BiDi ~ 0
AD0
Text GLabel 3000 850  2    60   BiDi ~ 0
AD1
Text GLabel 3000 950  2    60   BiDi ~ 0
AD2
Text GLabel 3000 1050 2    60   BiDi ~ 0
AD3
Text GLabel 3000 1150 2    60   BiDi ~ 0
AD4
Text GLabel 3000 1250 2    60   BiDi ~ 0
AD5
Text GLabel 3000 1350 2    60   BiDi ~ 0
AD6
Text GLabel 3000 1450 2    60   BiDi ~ 0
AD7
Text GLabel 3000 1550 2    60   BiDi ~ 0
AD8
Text GLabel 3000 1650 2    60   BiDi ~ 0
AD9
Text GLabel 3000 1750 2    60   BiDi ~ 0
AD10
Text GLabel 3000 1850 2    60   BiDi ~ 0
AD11
Text GLabel 3000 1950 2    60   3State ~ 0
AD12
Text GLabel 3000 2050 2    60   3State ~ 0
AD13
Text GLabel 3000 2150 2    60   3State ~ 0
AD14
Text GLabel 3000 2250 2    60   3State ~ 0
AD15
Text GLabel 8300 2250 2    60   BiDi ~ 0
AD0
Text GLabel 8300 2150 2    60   BiDi ~ 0
AD1
Text GLabel 8300 2050 2    60   BiDi ~ 0
AD2
Text GLabel 8300 1950 2    60   BiDi ~ 0
AD3
Text GLabel 8300 1850 2    60   BiDi ~ 0
AD4
Text GLabel 8300 1750 2    60   BiDi ~ 0
AD5
Text GLabel 8300 1650 2    60   BiDi ~ 0
AD6
Text GLabel 8300 1550 2    60   BiDi ~ 0
AD7
Text GLabel 8300 1350 2    60   BiDi ~ 0
AD8
Text GLabel 8300 1450 2    60   BiDi ~ 0
AD9
Text GLabel 8300 4050 2    60   BiDi ~ 0
AD10
Text GLabel 8300 3950 2    60   BiDi ~ 0
AD11
Text GLabel 8300 3850 2    60   BiDi ~ 0
AD12
Text GLabel 8300 3750 2    60   BiDi ~ 0
AD13
Text GLabel 8300 3650 2    60   BiDi ~ 0
AD14
Text GLabel 8300 3550 2    60   BiDi ~ 0
AD15
Text GLabel 3050 3350 2    60   Output ~ 0
SEL
Text GLabel 8300 3450 2    60   Input ~ 0
SEL
Text GLabel 900  1150 0    60   Input ~ 0
EVNT
Text GLabel 900  1250 0    60   Input ~ 0
HALT
Text GLabel 8300 3350 2    60   Output ~ 0
EVNT
Text GLabel 8300 3250 2    60   Output ~ 0
HALT
Text GLabel 900  1050 0    60   Input ~ 0
VIRQ
Text GLabel 8300 3150 2    60   Output ~ 0
VIRQ
Text GLabel 900  750  0    60   Input ~ 0
CLCI
Text GLabel 9350 3750 0    60   Input ~ 0
LV_CLCI
Text GLabel 3000 3550 2    60   Input ~ 0
CLCO
Text GLabel 9350 3650 0    60   Output ~ 0
LV_CLCO
Text GLabel 900  1350 0    60   Input ~ 0
ACLO
Text GLabel 900  1450 0    60   Input ~ 0
DCLO
Text GLabel 9350 2050 0    60   Input ~ 0
LV_ACLO
Text GLabel 9350 2150 0    60   Input ~ 0
LV_DCLO
Text GLabel 3050 2450 2    60   Output ~ 0
WRQ/SP1
Text GLabel 9350 3150 0    60   Output ~ 0
LV_WRQ/SP1
Text GLabel 950  2450 0    60   Input ~ 0
WAKI/SP2
Text GLabel 950  2050 0    60   Input ~ 0
DMR
Text GLabel 950  2150 0    60   Input ~ 0
SACK
Text GLabel 3050 2650 2    60   Output ~ 0
DMGO
$Comp
L GND #PWR01
U 1 1 59D89000
P 2850 3800
F 0 "#PWR01" H 2850 3550 50  0001 C CNN
F 1 "GND" H 2850 3650 50  0000 C CNN
F 2 "" H 2850 3800 50  0001 C CNN
F 3 "" H 2850 3800 50  0001 C CNN
	1    2850 3800
	1    0    0    -1  
$EndComp
$Comp
L GND #PWR02
U 1 1 59D8901E
P 950 3550
F 0 "#PWR02" H 950 3300 50  0001 C CNN
F 1 "GND" H 950 3400 50  0000 C CNN
F 2 "" H 950 3550 50  0001 C CNN
F 3 "" H 950 3550 50  0001 C CNN
	1    950  3550
	1    0    0    -1  
$EndComp
$Comp
L +5V #PWR03
U 1 1 59D89041
P 650 3700
F 0 "#PWR03" H 650 3550 50  0001 C CNN
F 1 "+5V" H 650 3840 50  0000 C CNN
F 2 "" H 650 3700 50  0001 C CNN
F 3 "" H 650 3700 50  0001 C CNN
	1    650  3700
	1    0    0    -1  
$EndComp
$Comp
L C C1
U 1 1 59D89332
P 8350 5050
F 0 "C1" H 8375 5150 50  0000 L CNN
F 1 "100n" H 8375 4950 50  0000 L CNN
F 2 "Capacitors_THT:C_Disc_D7.5mm_W2.5mm_P5.00mm" H 8388 4900 50  0001 C CNN
F 3 "" H 8350 5050 50  0001 C CNN
	1    8350 5050
	1    0    0    -1  
$EndComp
$Comp
L C C2
U 1 1 59D89499
P 8550 5050
F 0 "C2" H 8575 5150 50  0000 L CNN
F 1 "100n" H 8575 4950 50  0000 L CNN
F 2 "Capacitors_THT:C_Disc_D7.5mm_W2.5mm_P5.00mm" H 8588 4900 50  0001 C CNN
F 3 "" H 8550 5050 50  0001 C CNN
	1    8550 5050
	1    0    0    -1  
$EndComp
$Comp
L C C3
U 1 1 59D894CA
P 8750 5050
F 0 "C3" H 8775 5150 50  0000 L CNN
F 1 "100n" H 8775 4950 50  0000 L CNN
F 2 "Capacitors_THT:C_Disc_D7.5mm_W2.5mm_P5.00mm" H 8788 4900 50  0001 C CNN
F 3 "" H 8750 5050 50  0001 C CNN
	1    8750 5050
	1    0    0    -1  
$EndComp
$Comp
L C C4
U 1 1 59D89509
P 8950 5050
F 0 "C4" H 8975 5150 50  0000 L CNN
F 1 "100n" H 8975 4950 50  0000 L CNN
F 2 "Capacitors_THT:C_Disc_D7.5mm_W2.5mm_P5.00mm" H 8988 4900 50  0001 C CNN
F 3 "" H 8950 5050 50  0001 C CNN
	1    8950 5050
	1    0    0    -1  
$EndComp
$Comp
L C C5
U 1 1 59D89530
P 9150 5050
F 0 "C5" H 9175 5150 50  0000 L CNN
F 1 "100n" H 9175 4950 50  0000 L CNN
F 2 "Capacitors_THT:C_Disc_D7.5mm_W2.5mm_P5.00mm" H 9188 4900 50  0001 C CNN
F 3 "" H 9150 5050 50  0001 C CNN
	1    9150 5050
	1    0    0    -1  
$EndComp
$Comp
L C C6
U 1 1 59D8958F
P 9700 5050
F 0 "C6" H 9725 5150 50  0000 L CNN
F 1 "100n" H 9725 4950 50  0000 L CNN
F 2 "Capacitors_THT:C_Disc_D7.5mm_W2.5mm_P5.00mm" H 9738 4900 50  0001 C CNN
F 3 "" H 9700 5050 50  0001 C CNN
	1    9700 5050
	1    0    0    -1  
$EndComp
$Comp
L C C7
U 1 1 59D895C6
P 9900 5050
F 0 "C7" H 9925 5150 50  0000 L CNN
F 1 "100n" H 9925 4950 50  0000 L CNN
F 2 "Capacitors_THT:C_Disc_D7.5mm_W2.5mm_P5.00mm" H 9938 4900 50  0001 C CNN
F 3 "" H 9900 5050 50  0001 C CNN
	1    9900 5050
	1    0    0    -1  
$EndComp
$Comp
L C C8
U 1 1 59D895FB
P 10100 5050
F 0 "C8" H 10125 5150 50  0000 L CNN
F 1 "100n" H 10125 4950 50  0000 L CNN
F 2 "Capacitors_THT:C_Disc_D7.5mm_W2.5mm_P5.00mm" H 10138 4900 50  0001 C CNN
F 3 "" H 10100 5050 50  0001 C CNN
	1    10100 5050
	1    0    0    -1  
$EndComp
$Comp
L C C9
U 1 1 59D8962A
P 10300 5050
F 0 "C9" H 10325 5150 50  0000 L CNN
F 1 "100n" H 10325 4950 50  0000 L CNN
F 2 "Capacitors_THT:C_Disc_D7.5mm_W2.5mm_P5.00mm" H 10338 4900 50  0001 C CNN
F 3 "" H 10300 5050 50  0001 C CNN
	1    10300 5050
	1    0    0    -1  
$EndComp
$Comp
L GND #PWR04
U 1 1 59D897BD
P 8750 5250
F 0 "#PWR04" H 8750 5000 50  0001 C CNN
F 1 "GND" H 8750 5100 50  0000 C CNN
F 2 "" H 8750 5250 50  0001 C CNN
F 3 "" H 8750 5250 50  0001 C CNN
	1    8750 5250
	1    0    0    -1  
$EndComp
$Comp
L GND #PWR05
U 1 1 59D897FB
P 10000 5250
F 0 "#PWR05" H 10000 5000 50  0001 C CNN
F 1 "GND" H 10000 5100 50  0000 C CNN
F 2 "" H 10000 5250 50  0001 C CNN
F 3 "" H 10000 5250 50  0001 C CNN
	1    10000 5250
	1    0    0    -1  
$EndComp
$Comp
L +5V #PWR06
U 1 1 59D8982B
P 8750 4850
F 0 "#PWR06" H 8750 4700 50  0001 C CNN
F 1 "+5V" H 8750 4990 50  0000 C CNN
F 2 "" H 8750 4850 50  0001 C CNN
F 3 "" H 8750 4850 50  0001 C CNN
	1    8750 4850
	1    0    0    -1  
$EndComp
$Comp
L +3.3V #PWR07
U 1 1 59D8985B
P 10000 4850
F 0 "#PWR07" H 10000 4700 50  0001 C CNN
F 1 "+3.3V" H 10000 4990 50  0000 C CNN
F 2 "" H 10000 4850 50  0001 C CNN
F 3 "" H 10000 4850 50  0001 C CNN
	1    10000 4850
	1    0    0    -1  
$EndComp
$Comp
L +3.3V #PWR08
U 1 1 59DFA92E
P 2900 4500
F 0 "#PWR08" H 2900 4350 50  0001 C CNN
F 1 "+3.3V" H 2900 4640 50  0000 C CNN
F 2 "" H 2900 4500 50  0001 C CNN
F 3 "" H 2900 4500 50  0001 C CNN
	1    2900 4500
	1    0    0    -1  
$EndComp
$Comp
L GND #PWR09
U 1 1 59DFACE2
P 3000 6700
F 0 "#PWR09" H 3000 6450 50  0001 C CNN
F 1 "GND" H 3000 6550 50  0000 C CNN
F 2 "" H 3000 6700 50  0001 C CNN
F 3 "" H 3000 6700 50  0001 C CNN
	1    3000 6700
	1    0    0    -1  
$EndComp
$Comp
L GND #PWR010
U 1 1 59DFAD16
P 1050 6700
F 0 "#PWR010" H 1050 6450 50  0001 C CNN
F 1 "GND" H 1050 6550 50  0000 C CNN
F 2 "" H 1050 6700 50  0001 C CNN
F 3 "" H 1050 6700 50  0001 C CNN
	1    1050 6700
	1    0    0    -1  
$EndComp
$Comp
L GND #PWR011
U 1 1 59DFAD4A
P 4750 6700
F 0 "#PWR011" H 4750 6450 50  0001 C CNN
F 1 "GND" H 4750 6550 50  0000 C CNN
F 2 "" H 4750 6700 50  0001 C CNN
F 3 "" H 4750 6700 50  0001 C CNN
	1    4750 6700
	1    0    0    -1  
$EndComp
$Comp
L GND #PWR012
U 1 1 59DFAD7E
P 6700 6700
F 0 "#PWR012" H 6700 6450 50  0001 C CNN
F 1 "GND" H 6700 6550 50  0000 C CNN
F 2 "" H 6700 6700 50  0001 C CNN
F 3 "" H 6700 6700 50  0001 C CNN
	1    6700 6700
	1    0    0    -1  
$EndComp
$Comp
L GND #PWR013
U 1 1 59DFCD0C
P 6600 2950
F 0 "#PWR013" H 6600 2700 50  0001 C CNN
F 1 "GND" H 6600 2800 50  0000 C CNN
F 2 "" H 6600 2950 50  0001 C CNN
F 3 "" H 6600 2950 50  0001 C CNN
	1    6600 2950
	1    0    0    -1  
$EndComp
$Comp
L GND #PWR014
U 1 1 59DFCD40
P 6600 1150
F 0 "#PWR014" H 6600 900 50  0001 C CNN
F 1 "GND" H 6600 1000 50  0000 C CNN
F 2 "" H 6600 1150 50  0001 C CNN
F 3 "" H 6600 1150 50  0001 C CNN
	1    6600 1150
	1    0    0    -1  
$EndComp
$Comp
L GND #PWR015
U 1 1 59DFCD74
P 8900 1150
F 0 "#PWR015" H 8900 900 50  0001 C CNN
F 1 "GND" H 8900 1000 50  0000 C CNN
F 2 "" H 8900 1150 50  0001 C CNN
F 3 "" H 8900 1150 50  0001 C CNN
	1    8900 1150
	1    0    0    -1  
$EndComp
$Comp
L GND #PWR016
U 1 1 59DFCDA8
P 8900 2950
F 0 "#PWR016" H 8900 2700 50  0001 C CNN
F 1 "GND" H 8900 2800 50  0000 C CNN
F 2 "" H 8900 2950 50  0001 C CNN
F 3 "" H 8900 2950 50  0001 C CNN
	1    8900 2950
	1    0    0    -1  
$EndComp
$Comp
L +3.3V #PWR017
U 1 1 59DFCFF6
P 7200 1050
F 0 "#PWR017" H 7200 900 50  0001 C CNN
F 1 "+3.3V" H 7200 1190 50  0000 C CNN
F 2 "" H 7200 1050 50  0001 C CNN
F 3 "" H 7200 1050 50  0001 C CNN
	1    7200 1050
	1    0    0    -1  
$EndComp
$Comp
L +3.3V #PWR018
U 1 1 59DFD02A
P 9350 1050
F 0 "#PWR018" H 9350 900 50  0001 C CNN
F 1 "+3.3V" H 9350 1190 50  0000 C CNN
F 2 "" H 9350 1050 50  0001 C CNN
F 3 "" H 9350 1050 50  0001 C CNN
	1    9350 1050
	1    0    0    -1  
$EndComp
$Comp
L +3.3V #PWR019
U 1 1 59DFD05E
P 9350 2900
F 0 "#PWR019" H 9350 2750 50  0001 C CNN
F 1 "+3.3V" H 9350 3040 50  0000 C CNN
F 2 "" H 9350 2900 50  0001 C CNN
F 3 "" H 9350 2900 50  0001 C CNN
	1    9350 2900
	1    0    0    -1  
$EndComp
$Comp
L +3.3V #PWR020
U 1 1 59DFD092
P 7200 2900
F 0 "#PWR020" H 7200 2750 50  0001 C CNN
F 1 "+3.3V" H 7200 3040 50  0000 C CNN
F 2 "" H 7200 2900 50  0001 C CNN
F 3 "" H 7200 2900 50  0001 C CNN
	1    7200 2900
	1    0    0    -1  
$EndComp
Text GLabel 7200 2250 0    60   BiDi ~ 0
LV_AD0
Text GLabel 7200 2150 0    60   BiDi ~ 0
LV_AD1
Text GLabel 7200 2050 0    60   BiDi ~ 0
LV_AD2
Text GLabel 7200 1950 0    60   BiDi ~ 0
LV_AD3
Text GLabel 7200 1850 0    60   BiDi ~ 0
LV_AD4
Text GLabel 7200 1750 0    60   BiDi ~ 0
LV_AD5
Text GLabel 7200 1650 0    60   BiDi ~ 0
LV_AD6
Text GLabel 7200 1550 0    60   BiDi ~ 0
LV_AD7
Text GLabel 7200 1350 0    60   BiDi ~ 0
LV_AD8
Text GLabel 7200 1450 0    60   BiDi ~ 0
LV_AD9
Text GLabel 7200 4050 0    60   BiDi ~ 0
LV_AD10
Text GLabel 7200 3950 0    60   BiDi ~ 0
LV_AD11
Text GLabel 7200 3850 0    60   BiDi ~ 0
LV_AD12
Text GLabel 7200 3750 0    60   BiDi ~ 0
LV_AD13
Text GLabel 7200 3650 0    60   BiDi ~ 0
LV_AD14
Text GLabel 7200 3550 0    60   BiDi ~ 0
LV_AD15
Text GLabel 7200 3450 0    60   Output ~ 0
LV_SEL
Text GLabel 7200 3350 0    60   Input ~ 0
LV_EVNT
Text GLabel 7200 3250 0    60   Input ~ 0
LV_HALT
Text GLabel 7200 3150 0    60   Input ~ 0
LV_VIRQ
$Comp
L R R3
U 1 1 59DFF2B5
P 8350 2800
F 0 "R3" V 8430 2800 50  0000 C CNN
F 1 "200k" V 8350 2800 50  0000 C CNN
F 2 "Resistors_THT:R_Axial_DIN0411_L9.9mm_D3.6mm_P12.70mm_Horizontal" V 8280 2800 50  0001 C CNN
F 3 "" H 8350 2800 50  0001 C CNN
	1    8350 2800
	1    0    0    -1  
$EndComp
$Comp
L R R5
U 1 1 59DFF2EE
P 10500 2800
F 0 "R5" V 10580 2800 50  0000 C CNN
F 1 "200k" V 10500 2800 50  0000 C CNN
F 2 "Resistors_THT:R_Axial_DIN0411_L9.9mm_D3.6mm_P12.70mm_Horizontal" V 10430 2800 50  0001 C CNN
F 3 "" H 10500 2800 50  0001 C CNN
	1    10500 2800
	1    0    0    -1  
$EndComp
$Comp
L R R4
U 1 1 59DFF32D
P 10500 1000
F 0 "R4" V 10580 1000 50  0000 C CNN
F 1 "200k" V 10500 1000 50  0000 C CNN
F 2 "Resistors_THT:R_Axial_DIN0411_L9.9mm_D3.6mm_P12.70mm_Horizontal" V 10430 1000 50  0001 C CNN
F 3 "" H 10500 1000 50  0001 C CNN
	1    10500 1000
	1    0    0    -1  
$EndComp
$Comp
L R R2
U 1 1 59DFF36A
P 8350 1000
F 0 "R2" V 8430 1000 50  0000 C CNN
F 1 "200k" V 8350 1000 50  0000 C CNN
F 2 "Resistors_THT:R_Axial_DIN0411_L9.9mm_D3.6mm_P12.70mm_Horizontal" V 8280 1000 50  0001 C CNN
F 3 "" H 8350 1000 50  0001 C CNN
	1    8350 1000
	1    0    0    -1  
$EndComp
$Comp
L +5V #PWR021
U 1 1 59DFFA9F
P 8350 800
F 0 "#PWR021" H 8350 650 50  0001 C CNN
F 1 "+5V" H 8350 940 50  0000 C CNN
F 2 "" H 8350 800 50  0001 C CNN
F 3 "" H 8350 800 50  0001 C CNN
	1    8350 800 
	1    0    0    -1  
$EndComp
$Comp
L +5V #PWR022
U 1 1 59DFFADB
P 10500 800
F 0 "#PWR022" H 10500 650 50  0001 C CNN
F 1 "+5V" H 10500 940 50  0000 C CNN
F 2 "" H 10500 800 50  0001 C CNN
F 3 "" H 10500 800 50  0001 C CNN
	1    10500 800 
	1    0    0    -1  
$EndComp
$Comp
L +5V #PWR023
U 1 1 59DFFB17
P 10500 2600
F 0 "#PWR023" H 10500 2450 50  0001 C CNN
F 1 "+5V" H 10500 2740 50  0000 C CNN
F 2 "" H 10500 2600 50  0001 C CNN
F 3 "" H 10500 2600 50  0001 C CNN
	1    10500 2600
	1    0    0    -1  
$EndComp
$Comp
L +5V #PWR024
U 1 1 59DFFB53
P 8350 2600
F 0 "#PWR024" H 8350 2450 50  0001 C CNN
F 1 "+5V" H 8350 2740 50  0000 C CNN
F 2 "" H 8350 2600 50  0001 C CNN
F 3 "" H 8350 2600 50  0001 C CNN
	1    8350 2600
	1    0    0    -1  
$EndComp
Text GLabel 10450 3750 2    60   Output ~ 0
CLCI
Text GLabel 10450 3150 2    60   Output ~ 0
WRQ/SP1
Text GLabel 10450 3650 2    60   Input ~ 0
CLCO
Text GLabel 10450 2050 2    60   Output ~ 0
ACLO
Text GLabel 10450 2150 2    60   Output ~ 0
DCLO
Text GLabel 3050 2750 2    60   Output ~ 0
SYNC
Text GLabel 3050 2850 2    60   Output ~ 0
DIN
Text GLabel 3050 2950 2    60   Output ~ 0
DOUT
Text GLabel 3050 3050 2    60   Output ~ 0
WTBT
Text GLabel 3050 3150 2    60   Output ~ 0
IAKO
Text GLabel 3050 3250 2    60   Output ~ 0
INIT
Text GLabel 950  1950 0    60   Input ~ 0
AR
Text GLabel 950  2250 0    60   Input ~ 0
RPLY
Text GLabel 10450 3550 2    60   Input ~ 0
DMGO
Text GLabel 10450 1650 2    60   Input ~ 0
SYNC
Text GLabel 10450 1750 2    60   Input ~ 0
DIN
Text GLabel 10450 1350 2    60   Input ~ 0
DOUT
Text GLabel 10450 1450 2    60   Input ~ 0
WTBT
Text GLabel 10450 1950 2    60   Output ~ 0
IAKO
Text GLabel 10450 2250 2    60   Input ~ 0
INIT
Text GLabel 10450 1550 2    60   Output ~ 0
RPLY
Text GLabel 10450 3450 2    60   Output ~ 0
SACK
Text GLabel 10450 3350 2    60   Output ~ 0
DMR
Text GLabel 10450 1850 2    60   Output ~ 0
AR
Text GLabel 10450 3250 2    60   Output ~ 0
WAKI/SP2
$Comp
L R_Network10 RN1
U 1 1 59E0A7BE
P 4600 1300
F 0 "RN1" V 4000 1300 50  0000 C CNN
F 1 "2k2" V 5100 1300 50  0000 C CNN
F 2 "Resistors_THT:R_Array_SIP11" V 5175 1300 50  0001 C CNN
F 3 "" H 4600 1300 50  0001 C CNN
	1    4600 1300
	0    1    1    0   
$EndComp
$Comp
L R_Network10 RN3
U 1 1 59E0A96D
P 4600 3300
F 0 "RN3" V 4000 3300 50  0000 C CNN
F 1 "2k2" V 5100 3300 50  0000 C CNN
F 2 "Resistors_THT:R_Array_SIP11" V 5175 3300 50  0001 C CNN
F 3 "" H 4600 3300 50  0001 C CNN
	1    4600 3300
	0    1    1    0   
$EndComp
$Comp
L R_Network10 RN2
U 1 1 59E0AB33
P 5750 1300
F 0 "RN2" V 5150 1300 50  0000 C CNN
F 1 "2k2" V 6250 1300 50  0000 C CNN
F 2 "Resistors_THT:R_Array_SIP11" V 6325 1300 50  0001 C CNN
F 3 "" H 5750 1300 50  0001 C CNN
	1    5750 1300
	0    1    1    0   
$EndComp
$Comp
L R_Network10 RN4
U 1 1 59E0ABA8
P 5750 3300
F 0 "RN4" V 5150 3300 50  0000 C CNN
F 1 "2k2" V 6250 3300 50  0000 C CNN
F 2 "Resistors_THT:R_Array_SIP11" V 6325 3300 50  0001 C CNN
F 3 "" H 5750 3300 50  0001 C CNN
	1    5750 3300
	0    1    1    0   
$EndComp
$Comp
L +5V #PWR025
U 1 1 59E0AF14
P 4850 750
F 0 "#PWR025" H 4850 600 50  0001 C CNN
F 1 "+5V" H 4850 890 50  0000 C CNN
F 2 "" H 4850 750 50  0001 C CNN
F 3 "" H 4850 750 50  0001 C CNN
	1    4850 750 
	1    0    0    -1  
$EndComp
$Comp
L +5V #PWR026
U 1 1 59E0AF58
P 6000 750
F 0 "#PWR026" H 6000 600 50  0001 C CNN
F 1 "+5V" H 6000 890 50  0000 C CNN
F 2 "" H 6000 750 50  0001 C CNN
F 3 "" H 6000 750 50  0001 C CNN
	1    6000 750 
	1    0    0    -1  
$EndComp
$Comp
L +5V #PWR027
U 1 1 59E0AF9C
P 4850 2750
F 0 "#PWR027" H 4850 2600 50  0001 C CNN
F 1 "+5V" H 4850 2890 50  0000 C CNN
F 2 "" H 4850 2750 50  0001 C CNN
F 3 "" H 4850 2750 50  0001 C CNN
	1    4850 2750
	1    0    0    -1  
$EndComp
$Comp
L +5V #PWR028
U 1 1 59E0AFE0
P 6000 2750
F 0 "#PWR028" H 6000 2600 50  0001 C CNN
F 1 "+5V" H 6000 2890 50  0000 C CNN
F 2 "" H 6000 2750 50  0001 C CNN
F 3 "" H 6000 2750 50  0001 C CNN
	1    6000 2750
	1    0    0    -1  
$EndComp
Text GLabel 4300 1700 0    60   BiDi ~ 0
AD0
Text GLabel 4300 1600 0    60   BiDi ~ 0
AD1
Text GLabel 4300 1500 0    60   BiDi ~ 0
AD2
Text GLabel 4300 1400 0    60   BiDi ~ 0
AD3
Text GLabel 4300 1300 0    60   BiDi ~ 0
AD4
Text GLabel 4300 1200 0    60   BiDi ~ 0
AD5
Text GLabel 4300 1100 0    60   BiDi ~ 0
AD6
Text GLabel 4300 1000 0    60   BiDi ~ 0
AD7
Text GLabel 4300 800  0    60   BiDi ~ 0
AD8
Text GLabel 4300 900  0    60   BiDi ~ 0
AD9
Text GLabel 4300 2800 0    60   BiDi ~ 0
AD10
Text GLabel 4300 2900 0    60   BiDi ~ 0
AD11
Text GLabel 4300 3000 0    60   BiDi ~ 0
AD12
Text GLabel 4300 3100 0    60   BiDi ~ 0
AD13
Text GLabel 4300 3200 0    60   BiDi ~ 0
AD14
Text GLabel 4300 3300 0    60   BiDi ~ 0
AD15
Text GLabel 4300 3400 0    60   Input ~ 0
SEL
Text GLabel 4300 3500 0    60   Output ~ 0
EVNT
Text GLabel 4300 3600 0    60   Output ~ 0
HALT
Text GLabel 4300 3700 0    60   Output ~ 0
VIRQ
Text GLabel 5450 3400 0    60   Output ~ 0
CLCI
Text GLabel 5450 2800 0    60   Output ~ 0
WRQ/SP1
Text GLabel 5450 3200 0    60   Input ~ 0
DMGO
Text GLabel 5450 1400 0    60   Input ~ 0
SYNC
Text GLabel 5450 1300 0    60   Input ~ 0
DIN
Text GLabel 5450 1600 0    60   Input ~ 0
DOUT
Text GLabel 5450 1700 0    60   Input ~ 0
WTBT
Text GLabel 5450 1100 0    60   Output ~ 0
IAKO
Text GLabel 5450 800  0    60   Input ~ 0
INIT
Text GLabel 5450 2900 0    60   Output ~ 0
WAKI/SP2
Text GLabel 10450 3850 2    60   Input ~ 0
5V_GOOD
$Comp
L CP C10
U 1 1 59E110B3
P 8350 5700
F 0 "C10" H 8375 5800 50  0000 L CNN
F 1 "1u" H 8375 5600 50  0000 L CNN
F 2 "Capacitors_THT:CP_Radial_D5.0mm_P2.50mm" H 8388 5550 50  0001 C CNN
F 3 "" H 8350 5700 50  0001 C CNN
	1    8350 5700
	1    0    0    -1  
$EndComp
$Comp
L R R7
U 1 1 59E11102
P 8050 5700
F 0 "R7" V 8130 5700 50  0000 C CNN
F 1 "1k" V 8050 5700 50  0000 C CNN
F 2 "Resistors_THT:R_Axial_DIN0411_L9.9mm_D3.6mm_P12.70mm_Horizontal" V 7980 5700 50  0001 C CNN
F 3 "" H 8050 5700 50  0001 C CNN
	1    8050 5700
	1    0    0    -1  
$EndComp
$Comp
L R R6
U 1 1 59E1116B
P 8050 5300
F 0 "R6" V 8130 5300 50  0000 C CNN
F 1 "1k" V 8050 5300 50  0000 C CNN
F 2 "Resistors_THT:R_Axial_DIN0411_L9.9mm_D3.6mm_P12.70mm_Horizontal" V 7980 5300 50  0001 C CNN
F 3 "" H 8050 5300 50  0001 C CNN
	1    8050 5300
	1    0    0    -1  
$EndComp
$Comp
L GND #PWR029
U 1 1 59E114E6
P 8200 6000
F 0 "#PWR029" H 8200 5750 50  0001 C CNN
F 1 "GND" H 8200 5850 50  0000 C CNN
F 2 "" H 8200 6000 50  0001 C CNN
F 3 "" H 8200 6000 50  0001 C CNN
	1    8200 6000
	1    0    0    -1  
$EndComp
$Comp
L +5V #PWR030
U 1 1 59E1177C
P 8050 5100
F 0 "#PWR030" H 8050 4950 50  0001 C CNN
F 1 "+5V" H 8050 5240 50  0000 C CNN
F 2 "" H 8050 5100 50  0001 C CNN
F 3 "" H 8050 5100 50  0001 C CNN
	1    8050 5100
	1    0    0    -1  
$EndComp
Text GLabel 8500 5500 2    60   Output ~ 0
5V_GOOD
Text GLabel 5450 3300 0    60   Input ~ 0
CLCO
Text GLabel 5450 1000 0    60   Output ~ 0
ACLO
Text GLabel 5450 900  0    60   Output ~ 0
DCLO
Text GLabel 5450 1500 0    60   Output ~ 0
RPLY
Text GLabel 5450 3100 0    60   Output ~ 0
SACK
Text GLabel 5450 3000 0    60   Output ~ 0
DMR
Text GLabel 5450 1200 0    60   Output ~ 0
AR
Text GLabel 9350 3550 0    60   Output ~ 0
LV_DMGO
Text GLabel 9350 1650 0    60   Output ~ 0
LV_SYNC
Text GLabel 9350 1750 0    60   Output ~ 0
LV_DIN
Text GLabel 9350 1350 0    60   Output ~ 0
LV_DOUT
Text GLabel 9350 1450 0    60   Output ~ 0
LV_WTBT
Text GLabel 9350 1950 0    60   Input ~ 0
LV_IAKO
Text GLabel 9350 2250 0    60   Output ~ 0
LV_INIT
Text GLabel 9350 3250 0    60   Input ~ 0
LV_WAKI/SP2
Text GLabel 9350 1550 0    60   Input ~ 0
LV_RPLY
Text GLabel 9350 3450 0    60   Input ~ 0
LV_SACK
Text GLabel 9350 3350 0    60   Input ~ 0
LV_DMR
Text GLabel 9350 1850 0    60   Input ~ 0
LV_AR
Text GLabel 9350 3850 0    60   Output ~ 0
LV_5V_GOOD
Text GLabel 10450 3950 2    60   BiDi ~ 0
5V_AUX1
Text GLabel 10450 4050 2    60   BiDi ~ 0
5V_AUX2
Text GLabel 9350 3950 0    60   BiDi ~ 0
LV_AUX1
Text GLabel 9350 4050 0    60   BiDi ~ 0
LV_AUX2
Text GLabel 5450 3500 0    60   BiDi ~ 0
5V_AUX1
Text GLabel 5450 3600 0    60   BiDi ~ 0
5V_AUX2
$Comp
L LED D2
U 1 1 59E18576
P 5400 3700
F 0 "D2" H 5400 3800 50  0000 C CNN
F 1 "LED" H 5400 3600 50  0000 C CNN
F 2 "LEDs:LED_D5.0mm" H 5400 3700 50  0001 C CNN
F 3 "" H 5400 3700 50  0001 C CNN
	1    5400 3700
	1    0    0    -1  
$EndComp
$Comp
L GND #PWR031
U 1 1 59E18603
P 5200 3750
F 0 "#PWR031" H 5200 3500 50  0001 C CNN
F 1 "GND" H 5200 3600 50  0000 C CNN
F 2 "" H 5200 3750 50  0001 C CNN
F 3 "" H 5200 3750 50  0001 C CNN
	1    5200 3750
	1    0    0    -1  
$EndComp
Text GLabel 4650 5400 0    60   BiDi ~ 0
LV_AD0
Text GLabel 4650 5200 0    60   BiDi ~ 0
LV_AD1
Text GLabel 6850 5200 2    60   BiDi ~ 0
LV_AD2
Text GLabel 4650 5100 0    60   BiDi ~ 0
LV_AD3
Text GLabel 6850 5100 2    60   BiDi ~ 0
LV_AD4
Text GLabel 4650 5000 0    60   BiDi ~ 0
LV_AD5
Text GLabel 6850 5000 2    60   BiDi ~ 0
LV_AD6
Text GLabel 4650 4800 0    60   BiDi ~ 0
LV_AD7
Text GLabel 4650 4700 0    60   BiDi ~ 0
LV_AD8
Text GLabel 6850 4800 2    60   BiDi ~ 0
LV_AD9
Text GLabel 950  4700 0    60   BiDi ~ 0
LV_AD10
Text GLabel 3100 4800 2    60   BiDi ~ 0
LV_AD11
Text GLabel 950  4800 0    60   BiDi ~ 0
LV_AD12
Text GLabel 950  5000 0    60   BiDi ~ 0
LV_AD13
Text GLabel 3100 5000 2    60   BiDi ~ 0
LV_AD14
Text GLabel 950  5100 0    60   BiDi ~ 0
LV_AD15
Text GLabel 3100 5100 2    60   Output ~ 0
LV_SEL
Text GLabel 950  5200 0    60   Input ~ 0
LV_EVNT
Text GLabel 3100 5200 2    60   Input ~ 0
LV_HALT
Text GLabel 950  5400 0    60   Input ~ 0
LV_VIRQ
Text GLabel 4650 5800 0    60   Input ~ 0
LV_CLCO
Text GLabel 950  5500 0    60   Output ~ 0
LV_ACLO
Text GLabel 3100 5500 2    60   Output ~ 0
LV_DCLO
Text GLabel 3100 5900 2    60   Output ~ 0
LV_RPLY
Text GLabel 4650 5600 0    60   Output ~ 0
LV_SACK
Text GLabel 6850 5500 2    60   Output ~ 0
LV_DMR
Text GLabel 950  5600 0    60   Output ~ 0
LV_AR
Text GLabel 4650 5900 0    60   BiDi ~ 0
LV_AUX1
Text GLabel 6850 5900 2    60   BiDi ~ 0
LV_AUX2
Text GLabel 6850 5800 2    60   Output ~ 0
LV_CLCI
Text GLabel 6850 5400 2    60   Input ~ 0
LV_WRQ/SP1
Text GLabel 6850 5600 2    60   Input ~ 0
LV_DMGO
Text GLabel 950  5800 0    60   Input ~ 0
LV_SYNC
Text GLabel 3100 5800 2    60   Input ~ 0
LV_DIN
Text GLabel 3100 6000 2    60   Input ~ 0
LV_DOUT
Text GLabel 950  5900 0    60   Input ~ 0
LV_WTBT
Text GLabel 3100 5600 2    60   Output ~ 0
LV_IAKO
Text GLabel 3100 5400 2    60   Input ~ 0
LV_INIT
Text GLabel 4650 5500 0    60   Output ~ 0
LV_WAKI/SP2
$Comp
L Barrel_Jack JP1
U 1 1 59E280F5
P 10850 6000
F 0 "JP1" H 10850 6195 50  0000 C CNN
F 1 "BARREL_JACK" H 10850 5845 50  0000 C CNN
F 2 "Connectors:BARREL_JACK" H 10850 6000 50  0001 C CNN
F 3 "" H 10850 6000 50  0001 C CNN
	1    10850 6000
	-1   0    0    -1  
$EndComp
$Comp
L D D1
U 1 1 59E28C09
P 10300 5900
F 0 "D1" H 10300 6000 50  0000 C CNN
F 1 "1N4007" H 10300 5800 50  0000 C CNN
F 2 "Diodes_THT:D_DO-35_SOD27_P7.62mm_Horizontal" H 10300 5900 50  0001 C CNN
F 3 "" H 10300 5900 50  0001 C CNN
	1    10300 5900
	1    0    0    -1  
$EndComp
$Comp
L CP C11
U 1 1 59E28DC9
P 10100 6100
F 0 "C11" H 10125 6200 50  0000 L CNN
F 1 "100u" H 10125 6000 50  0000 L CNN
F 2 "Capacitors_THT:CP_Radial_D5.0mm_P2.50mm" H 10138 5950 50  0001 C CNN
F 3 "" H 10100 6100 50  0001 C CNN
	1    10100 6100
	1    0    0    -1  
$EndComp
$Comp
L CP C12
U 1 1 59E28E7A
P 9100 6100
F 0 "C12" H 9125 6200 50  0000 L CNN
F 1 "100u" H 9125 6000 50  0000 L CNN
F 2 "Capacitors_THT:CP_Radial_D5.0mm_P2.50mm" H 9138 5950 50  0001 C CNN
F 3 "" H 9100 6100 50  0001 C CNN
	1    9100 6100
	1    0    0    -1  
$EndComp
$Comp
L +5V #PWR032
U 1 1 59E29A32
P 9100 5850
F 0 "#PWR032" H 9100 5700 50  0001 C CNN
F 1 "+5V" H 9100 5990 50  0000 C CNN
F 2 "" H 9100 5850 50  0001 C CNN
F 3 "" H 9100 5850 50  0001 C CNN
	1    9100 5850
	1    0    0    -1  
$EndComp
$Comp
L Conn_01x02 JP2
U 1 1 59E29EAA
P 10750 5550
F 0 "JP2" H 10750 5700 50  0000 C CNN
F 1 "CONN_01X02" V 10850 5550 50  0000 C CNN
F 2 "Pin_Headers:Pin_Header_Straight_1x02_Pitch2.54mm" H 10750 5550 50  0001 C CNN
F 3 "" H 10750 5550 50  0001 C CNN
	1    10750 5550
	1    0    0    -1  
$EndComp
Wire Wire Line
	8300 4050 8250 4050
Wire Wire Line
	8300 3950 8250 3950
Wire Wire Line
	8300 3850 8250 3850
Wire Wire Line
	8300 3750 8250 3750
Wire Wire Line
	8300 3650 8250 3650
Wire Wire Line
	8250 3550 8300 3550
Wire Wire Line
	8300 3450 8250 3450
Wire Wire Line
	8250 3350 8300 3350
Wire Wire Line
	8300 3250 8250 3250
Wire Wire Line
	8250 3150 8300 3150
Wire Wire Line
	7250 4050 7200 4050
Wire Wire Line
	7200 3950 7250 3950
Wire Wire Line
	7250 3850 7200 3850
Wire Wire Line
	7200 3750 7250 3750
Wire Wire Line
	7250 3650 7200 3650
Wire Wire Line
	7200 3550 7250 3550
Wire Wire Line
	7250 3450 7200 3450
Wire Wire Line
	7200 3350 7250 3350
Wire Wire Line
	7250 3250 7200 3250
Wire Wire Line
	7200 3150 7250 3150
Wire Wire Line
	10450 3350 10400 3350
Wire Wire Line
	10450 3250 10400 3250
Wire Wire Line
	10450 3150 10400 3150
Wire Wire Line
	10450 1450 10400 1450
Wire Wire Line
	10450 1350 10400 1350
Wire Wire Line
	8350 850  8350 800 
Wire Wire Line
	10500 850  10500 800 
Wire Wire Line
	10500 2650 10500 2600
Wire Wire Line
	8350 2650 8350 2600
Connection ~ 10500 1200
Wire Wire Line
	10500 1250 10400 1250
Wire Wire Line
	10500 1150 10500 1250
Wire Wire Line
	10400 1200 10500 1200
Wire Wire Line
	10400 1150 10400 1200
Connection ~ 10500 3000
Wire Wire Line
	10400 3000 10500 3000
Wire Wire Line
	10400 2950 10400 3000
Wire Wire Line
	10500 2950 10500 3050
Wire Wire Line
	10500 3050 10400 3050
Connection ~ 8350 3000
Wire Wire Line
	8350 3050 8250 3050
Wire Wire Line
	8350 2950 8350 3050
Wire Wire Line
	8250 3000 8350 3000
Wire Wire Line
	8250 2950 8250 3000
Connection ~ 8350 1200
Wire Wire Line
	8250 1200 8350 1200
Wire Wire Line
	8250 1150 8250 1200
Wire Wire Line
	8350 1150 8350 1250
Wire Wire Line
	8350 1250 8250 1250
Wire Wire Line
	9350 3350 9400 3350
Wire Wire Line
	9350 3250 9400 3250
Wire Wire Line
	9350 3150 9400 3150
Wire Wire Line
	9350 1450 9400 1450
Wire Wire Line
	9350 1350 9400 1350
Wire Wire Line
	8300 2250 8250 2250
Wire Wire Line
	8300 2150 8250 2150
Wire Wire Line
	8300 2050 8250 2050
Wire Wire Line
	8300 1950 8250 1950
Wire Wire Line
	8300 1850 8250 1850
Wire Wire Line
	8300 1750 8250 1750
Wire Wire Line
	8300 1650 8250 1650
Wire Wire Line
	8300 1550 8250 1550
Wire Wire Line
	8300 1450 8250 1450
Wire Wire Line
	8300 1350 8250 1350
Wire Wire Line
	7200 2250 7250 2250
Wire Wire Line
	7200 2150 7250 2150
Wire Wire Line
	7200 2050 7250 2050
Wire Wire Line
	7200 1950 7250 1950
Wire Wire Line
	7200 1850 7250 1850
Wire Wire Line
	7200 1750 7250 1750
Wire Wire Line
	7200 1650 7250 1650
Wire Wire Line
	7200 1550 7250 1550
Wire Wire Line
	7200 1450 7250 1450
Wire Wire Line
	7200 1350 7250 1350
Wire Wire Line
	2750 750  3000 750 
Wire Wire Line
	3000 850  2750 850 
Wire Wire Line
	2750 950  3000 950 
Wire Wire Line
	3000 1050 2750 1050
Wire Wire Line
	2750 1150 3000 1150
Wire Wire Line
	3000 1250 2750 1250
Wire Wire Line
	2750 1350 3000 1350
Wire Wire Line
	3000 1450 2750 1450
Wire Wire Line
	2750 1550 3000 1550
Wire Wire Line
	3000 1650 2750 1650
Wire Wire Line
	2750 1750 3000 1750
Wire Wire Line
	2750 1850 3000 1850
Wire Wire Line
	2750 1950 3000 1950
Wire Wire Line
	2750 2050 3000 2050
Wire Wire Line
	2750 2150 3000 2150
Wire Wire Line
	2750 2250 3000 2250
Wire Wire Line
	3050 3350 2750 3350
Wire Wire Line
	900  1150 1050 1150
Wire Wire Line
	900  1250 1050 1250
Wire Wire Line
	900  1050 1050 1050
Wire Wire Line
	900  750  1050 750 
Wire Wire Line
	3000 3550 2750 3550
Wire Wire Line
	900  1350 1050 1350
Wire Wire Line
	900  1450 1050 1450
Wire Wire Line
	950  2050 1050 2050
Wire Wire Line
	950  2150 1050 2150
Wire Wire Line
	950  2450 1050 2450
Wire Wire Line
	2750 2450 3050 2450
Wire Wire Line
	2750 2650 3050 2650
Wire Wire Line
	2750 3750 2850 3750
Wire Wire Line
	2850 3750 2850 3800
Wire Wire Line
	1050 3750 650  3750
Wire Wire Line
	650  3750 650  3700
Wire Wire Line
	1050 3550 950  3550
Wire Wire Line
	9700 4900 10300 4900
Wire Wire Line
	9700 5200 10300 5200
Wire Wire Line
	8350 4900 9150 4900
Wire Wire Line
	8350 5200 9150 5200
Wire Wire Line
	8750 4900 8750 4850
Connection ~ 8750 4900
Wire Wire Line
	8750 5200 8750 5250
Connection ~ 8750 5200
Wire Wire Line
	10000 5250 10000 5200
Connection ~ 10000 5200
Wire Wire Line
	10000 4850 10000 4900
Connection ~ 10000 4900
Wire Wire Line
	2800 4700 3100 4700
Wire Wire Line
	6700 6500 6500 6500
Wire Wire Line
	6700 4900 6700 6700
Wire Wire Line
	6700 6100 6500 6100
Connection ~ 6700 6500
Wire Wire Line
	6700 5700 6500 5700
Connection ~ 6700 6100
Connection ~ 6700 5700
Wire Wire Line
	6500 4900 6700 4900
Wire Wire Line
	4950 4900 4750 4900
Wire Wire Line
	4750 4900 4750 6700
Wire Wire Line
	4950 5300 4750 5300
Connection ~ 4750 5300
Wire Wire Line
	4750 5700 4950 5700
Connection ~ 4750 5700
Wire Wire Line
	4750 6100 4950 6100
Connection ~ 4750 6100
Wire Wire Line
	4750 6500 4950 6500
Connection ~ 4750 6500
Wire Wire Line
	6500 5300 6700 5300
Connection ~ 6700 5300
Wire Wire Line
	2800 4900 3000 4900
Wire Wire Line
	3000 4900 3000 6700
Wire Wire Line
	2800 5300 3000 5300
Connection ~ 3000 5300
Wire Wire Line
	3000 5700 2800 5700
Connection ~ 3000 5700
Wire Wire Line
	3000 6100 2800 6100
Connection ~ 3000 6100
Wire Wire Line
	3000 6500 2800 6500
Connection ~ 3000 6500
Wire Wire Line
	1250 4900 1050 4900
Wire Wire Line
	1050 4900 1050 6700
Wire Wire Line
	1250 5300 1050 5300
Connection ~ 1050 5300
Wire Wire Line
	1050 5700 1250 5700
Connection ~ 1050 5700
Wire Wire Line
	1050 6100 1250 6100
Connection ~ 1050 6100
Wire Wire Line
	1050 6500 1250 6500
Connection ~ 1050 6500
Wire Wire Line
	9400 1150 8900 1150
Wire Wire Line
	7250 1150 6600 1150
Wire Wire Line
	7250 2950 6600 2950
Wire Wire Line
	9400 2950 8900 2950
Wire Wire Line
	7250 1250 7200 1250
Wire Wire Line
	7200 1250 7200 1050
Wire Wire Line
	9400 1250 9350 1250
Wire Wire Line
	9350 1250 9350 1050
Wire Wire Line
	9400 3050 9350 3050
Wire Wire Line
	9350 3050 9350 2900
Wire Wire Line
	7250 3050 7200 3050
Wire Wire Line
	7200 3050 7200 2900
Wire Wire Line
	2750 2750 3050 2750
Wire Wire Line
	2750 2850 3050 2850
Wire Wire Line
	2750 2950 3050 2950
Wire Wire Line
	2750 3050 3050 3050
Wire Wire Line
	2750 3150 3050 3150
Wire Wire Line
	2750 3250 3050 3250
Wire Wire Line
	950  1950 1050 1950
Wire Wire Line
	950  2250 1050 2250
Wire Wire Line
	10450 1550 10400 1550
Wire Wire Line
	10400 1650 10450 1650
Wire Wire Line
	10400 1750 10450 1750
Wire Wire Line
	10400 1850 10450 1850
Wire Wire Line
	10400 1950 10450 1950
Wire Wire Line
	10400 2050 10450 2050
Wire Wire Line
	10400 2150 10450 2150
Wire Wire Line
	10400 2250 10450 2250
Wire Wire Line
	10450 3450 10400 3450
Wire Wire Line
	10450 3550 10400 3550
Wire Wire Line
	10450 3650 10400 3650
Wire Wire Line
	10450 3750 10400 3750
Wire Wire Line
	5950 800  6000 800 
Wire Wire Line
	6000 800  6000 750 
Wire Wire Line
	4800 800  4850 800 
Wire Wire Line
	4850 800  4850 750 
Wire Wire Line
	4800 2800 4850 2800
Wire Wire Line
	4850 2800 4850 2750
Wire Wire Line
	5950 2800 6000 2800
Wire Wire Line
	6000 2800 6000 2750
Wire Wire Line
	4300 800  4400 800 
Wire Wire Line
	4300 900  4400 900 
Wire Wire Line
	4300 1000 4400 1000
Wire Wire Line
	4300 1100 4400 1100
Wire Wire Line
	4300 1200 4400 1200
Wire Wire Line
	4300 1300 4400 1300
Wire Wire Line
	4300 1400 4400 1400
Wire Wire Line
	4300 1500 4400 1500
Wire Wire Line
	4300 1600 4400 1600
Wire Wire Line
	4300 1700 4400 1700
Wire Wire Line
	4300 2800 4400 2800
Wire Wire Line
	4400 2900 4300 2900
Wire Wire Line
	4300 3000 4400 3000
Wire Wire Line
	4400 3100 4300 3100
Wire Wire Line
	4300 3200 4400 3200
Wire Wire Line
	4400 3300 4300 3300
Wire Wire Line
	4300 3400 4400 3400
Wire Wire Line
	4400 3500 4300 3500
Wire Wire Line
	4300 3600 4400 3600
Wire Wire Line
	4400 3700 4300 3700
Wire Wire Line
	5450 800  5550 800 
Wire Wire Line
	5550 900  5450 900 
Wire Wire Line
	5450 1000 5550 1000
Wire Wire Line
	5550 1100 5450 1100
Wire Wire Line
	5450 1200 5550 1200
Wire Wire Line
	5550 1300 5450 1300
Wire Wire Line
	5450 1400 5550 1400
Wire Wire Line
	5450 1500 5550 1500
Wire Wire Line
	5450 1600 5550 1600
Wire Wire Line
	5450 1700 5550 1700
Wire Wire Line
	10450 3850 10400 3850
Wire Wire Line
	8050 5450 8050 5550
Wire Wire Line
	8050 5500 8500 5500
Wire Wire Line
	8350 5500 8350 5550
Connection ~ 8050 5500
Wire Wire Line
	8050 5850 8050 5950
Wire Wire Line
	8050 5950 8350 5950
Wire Wire Line
	8350 5950 8350 5850
Wire Wire Line
	8200 6000 8200 5950
Connection ~ 8200 5950
Wire Wire Line
	8050 5150 8050 5100
Connection ~ 8350 5500
Wire Wire Line
	5450 2800 5550 2800
Wire Wire Line
	5450 2900 5550 2900
Wire Wire Line
	5450 3000 5550 3000
Wire Wire Line
	5450 3100 5550 3100
Wire Wire Line
	5450 3200 5550 3200
Wire Wire Line
	5450 3300 5550 3300
Wire Wire Line
	5450 3400 5550 3400
Wire Wire Line
	9350 1550 9400 1550
Wire Wire Line
	9350 1650 9400 1650
Wire Wire Line
	9350 1750 9400 1750
Wire Wire Line
	9350 1850 9400 1850
Wire Wire Line
	9350 1950 9400 1950
Wire Wire Line
	9350 2050 9400 2050
Wire Wire Line
	9350 2150 9400 2150
Wire Wire Line
	9350 2250 9400 2250
Wire Wire Line
	9350 3450 9400 3450
Wire Wire Line
	9350 3550 9400 3550
Wire Wire Line
	9350 3650 9400 3650
Wire Wire Line
	9350 3750 9400 3750
Wire Wire Line
	9350 3850 9400 3850
Wire Wire Line
	10450 3950 10400 3950
Wire Wire Line
	10450 4050 10400 4050
Wire Wire Line
	9350 3950 9400 3950
Wire Wire Line
	9400 4050 9350 4050
Wire Wire Line
	5450 3500 5550 3500
Wire Wire Line
	5450 3600 5550 3600
Wire Wire Line
	5250 3700 5200 3700
Wire Wire Line
	5200 3700 5200 3750
Wire Wire Line
	6850 4800 6500 4800
Wire Wire Line
	6850 5000 6500 5000
Wire Wire Line
	6850 5100 6500 5100
Wire Wire Line
	6850 5200 6500 5200
Wire Wire Line
	6850 5400 6500 5400
Wire Wire Line
	6850 5500 6500 5500
Wire Wire Line
	6850 5600 6500 5600
Wire Wire Line
	6850 5800 6500 5800
Wire Wire Line
	6850 5900 6500 5900
Wire Wire Line
	950  4700 1250 4700
Wire Wire Line
	950  4800 1250 4800
Wire Wire Line
	950  5000 1250 5000
Wire Wire Line
	950  5100 1250 5100
Wire Wire Line
	950  5200 1250 5200
Wire Wire Line
	950  5400 1250 5400
Wire Wire Line
	950  5500 1250 5500
Wire Wire Line
	950  5600 1250 5600
Wire Wire Line
	950  5800 1250 5800
Wire Wire Line
	950  5900 1250 5900
Wire Wire Line
	4650 4700 4950 4700
Wire Wire Line
	4650 4800 4950 4800
Wire Wire Line
	4650 5000 4950 5000
Wire Wire Line
	4650 5100 4950 5100
Wire Wire Line
	4650 5200 4950 5200
Wire Wire Line
	4650 5400 4950 5400
Wire Wire Line
	4650 5500 4950 5500
Wire Wire Line
	4650 5600 4950 5600
Wire Wire Line
	4650 5800 4950 5800
Wire Wire Line
	4650 5900 4950 5900
Wire Wire Line
	2800 4800 3100 4800
Wire Wire Line
	2800 5000 3100 5000
Wire Wire Line
	2800 5100 3100 5100
Wire Wire Line
	2800 5200 3100 5200
Wire Wire Line
	2800 5400 3100 5400
Wire Wire Line
	2800 5500 3100 5500
Wire Wire Line
	2800 5600 3100 5600
Wire Wire Line
	2800 5800 3100 5800
Wire Wire Line
	2800 5900 3100 5900
Wire Wire Line
	2800 6000 3100 6000
Wire Wire Line
	4650 6000 4950 6000
Wire Wire Line
	10450 5900 10550 5900
Wire Wire Line
	10500 6300 9100 6300
Wire Wire Line
	9100 6300 9100 6250
Wire Wire Line
	9600 6200 9600 6300
Connection ~ 9600 6300
Wire Wire Line
	10100 6250 10100 6300
Connection ~ 10100 6300
Wire Wire Line
	10000 5900 10150 5900
Wire Wire Line
	10100 5950 10100 5900
Connection ~ 10100 5900
Wire Wire Line
	9100 5850 9100 5950
Wire Wire Line
	9100 5900 9200 5900
Connection ~ 9100 5900
Wire Wire Line
	10550 6000 10500 6000
Wire Wire Line
	10500 6000 10500 6300
Wire Wire Line
	10550 6100 10500 6100
Connection ~ 10500 6100
Wire Wire Line
	10550 5600 10500 5600
Wire Wire Line
	10500 5600 10500 5900
Connection ~ 10500 5900
$Comp
L GND #PWR033
U 1 1 59E2AFCF
P 10350 5550
F 0 "#PWR033" H 10350 5300 50  0001 C CNN
F 1 "GND" H 10350 5400 50  0000 C CNN
F 2 "" H 10350 5550 50  0001 C CNN
F 3 "" H 10350 5550 50  0001 C CNN
	1    10350 5550
	1    0    0    -1  
$EndComp
Wire Wire Line
	10550 5500 10350 5500
Wire Wire Line
	10350 5500 10350 5550
Connection ~ 8950 4900
Connection ~ 8550 4900
Connection ~ 8550 5200
Connection ~ 8950 5200
Connection ~ 9900 4900
Connection ~ 9900 5200
Connection ~ 10100 5200
Connection ~ 10100 4900
NoConn ~ 1250 4600
$Comp
L PWR_FLAG #FLG034
U 1 1 59E32537
P 4350 2100
F 0 "#FLG034" H 4350 2175 50  0001 C CNN
F 1 "PWR_FLAG" H 4350 2250 50  0000 C CNN
F 2 "" H 4350 2100 50  0001 C CNN
F 3 "" H 4350 2100 50  0001 C CNN
	1    4350 2100
	1    0    0    -1  
$EndComp
$Comp
L GND #PWR035
U 1 1 59E3266B
P 4350 2200
F 0 "#PWR035" H 4350 1950 50  0001 C CNN
F 1 "GND" H 4350 2050 50  0000 C CNN
F 2 "" H 4350 2200 50  0001 C CNN
F 3 "" H 4350 2200 50  0001 C CNN
	1    4350 2200
	1    0    0    -1  
$EndComp
Wire Wire Line
	4350 2200 4350 2100
Wire Wire Line
	2800 4600 2900 4600
Wire Wire Line
	2900 4600 2900 4500
$Comp
L +3.3V #PWR036
U 1 1 59E34F03
P 3100 4500
F 0 "#PWR036" H 3100 4350 50  0001 C CNN
F 1 "+3.3V" H 3100 4640 50  0000 C CNN
F 2 "" H 3100 4500 50  0001 C CNN
F 3 "" H 3100 4500 50  0001 C CNN
	1    3100 4500
	1    0    0    -1  
$EndComp
Wire Wire Line
	3100 4700 3100 4500
NoConn ~ 6500 4600
NoConn ~ 6500 4700
NoConn ~ 4950 4600
$Comp
L GND #PWR037
U 1 1 59E38EE6
P 9600 6300
F 0 "#PWR037" H 9600 6050 50  0001 C CNN
F 1 "GND" H 9600 6150 50  0000 C CNN
F 2 "" H 9600 6300 50  0001 C CNN
F 3 "" H 9600 6300 50  0001 C CNN
	1    9600 6300
	1    0    0    -1  
$EndComp
$Comp
L HX8K_IO_J4 J4
U 2 1 59E3A1EE
P 2000 5550
F 0 "J4" H 1700 4400 60  0000 C CNN
F 1 "HX8K_IO_J4" H 2000 4400 60  0000 C CNN
F 2 "Pin_Headers:Pin_Header_Straight_2x20_Pitch2.54mm" H 1950 2900 60  0001 C CNN
F 3 "" H 1950 2900 60  0001 C CNN
	2    2000 5550
	1    0    0    -1  
$EndComp
$Comp
L HX8K_IO_J2 J2
U 1 1 59E3A2A5
P 5700 5550
F 0 "J2" H 5400 4400 60  0000 C CNN
F 1 "HX8K_IO_J2" H 5700 4400 60  0000 C CNN
F 2 "Pin_Headers:Pin_Header_Straight_2x20_Pitch2.54mm" H 5650 2900 60  0001 C CNN
F 3 "" H 5650 2900 60  0001 C CNN
	1    5700 5550
	1    0    0    -1  
$EndComp
Text GLabel 4650 6000 0    60   Input ~ 0
LV_5V_GOOD
NoConn ~ 6500 6200
NoConn ~ 6500 6300
NoConn ~ 6500 6400
NoConn ~ 4950 6400
NoConn ~ 4950 6300
NoConn ~ 4950 6200
NoConn ~ 2800 6200
NoConn ~ 2800 6300
NoConn ~ 2800 6400
NoConn ~ 1250 6400
NoConn ~ 1250 6300
NoConn ~ 1250 6200
NoConn ~ 1250 6000
NoConn ~ 6500 6000
$Comp
L 1801vm2_7805 U10
U 1 1 59E52A6A
P 9600 5950
F 0 "U10" H 9750 5754 50  0000 C CNN
F 1 "1801vm2_7805" H 9600 6150 50  0000 C CNN
F 2 "Power_Integrations:TO-220" H 9600 5950 50  0001 C CNN
F 3 "" H 9600 5950 50  0001 C CNN
	1    9600 5950
	-1   0    0    -1  
$EndComp
$EndSCHEMATC
