EESchema Schematic File Version 2
LIBS:power
LIBS:device
LIBS:switches
LIBS:relays
LIBS:motors
LIBS:transistors
LIBS:conn
LIBS:linear
LIBS:regul
LIBS:74xx
LIBS:cmos4000
LIBS:adc-dac
LIBS:memory
LIBS:xilinx
LIBS:microcontrollers
LIBS:dsp
LIBS:microchip
LIBS:analog_switches
LIBS:motorola
LIBS:texas
LIBS:intel
LIBS:audio
LIBS:interface
LIBS:digital-audio
LIBS:philips
LIBS:display
LIBS:cypress
LIBS:siliconi
LIBS:opto
LIBS:atmel
LIBS:contrib
LIBS:valves
LIBS:spimem
EELAYER 25 0
EELAYER END
$Descr A4 11693 8268
encoding utf-8
Sheet 1 1
Title ""
Date ""
Rev ""
Comp ""
Comment1 ""
Comment2 ""
Comment3 ""
Comment4 ""
$EndDescr
$Comp
L 23LC1024 U1
U 1 1 5A5E3479
P 5300 2400
F 0 "U1" H 5900 1900 60  0000 C CNN
F 1 "23LC1024" H 5300 2700 60  0000 C CNN
F 2 "Housings_DIP:DIP-8_W7.62mm_Socket" H 5500 2400 60  0001 C CNN
F 3 "" H 5500 2400 60  0001 C CNN
	1    5300 2400
	1    0    0    -1  
$EndComp
Wire Wire Line
	4450 4000 5050 4000
Wire Wire Line
	5550 4000 6200 4000
$Comp
L +3V3 #PWR01
U 1 1 5A5E35DC
P 6200 4000
F 0 "#PWR01" H 6200 3850 50  0001 C CNN
F 1 "+3V3" H 6200 4140 50  0000 C CNN
F 2 "" H 6200 4000 50  0001 C CNN
F 3 "" H 6200 4000 50  0001 C CNN
	1    6200 4000
	0    1    1    0   
$EndComp
$Comp
L +3V3 #PWR02
U 1 1 5A5E35F4
P 4450 4000
F 0 "#PWR02" H 4450 3850 50  0001 C CNN
F 1 "+3V3" H 4450 4140 50  0000 C CNN
F 2 "" H 4450 4000 50  0001 C CNN
F 3 "" H 4450 4000 50  0001 C CNN
	1    4450 4000
	0    -1   -1   0   
$EndComp
$Comp
L +3V3 #PWR03
U 1 1 5A5E361C
P 6100 2050
F 0 "#PWR03" H 6100 1900 50  0001 C CNN
F 1 "+3V3" H 6100 2190 50  0000 C CNN
F 2 "" H 6100 2050 50  0001 C CNN
F 3 "" H 6100 2050 50  0001 C CNN
	1    6100 2050
	1    0    0    -1  
$EndComp
Wire Wire Line
	6050 2100 6100 2100
Wire Wire Line
	6100 2100 6100 2050
$Comp
L GND #PWR04
U 1 1 5A5E3633
P 4500 2700
F 0 "#PWR04" H 4500 2450 50  0001 C CNN
F 1 "GND" H 4500 2550 50  0000 C CNN
F 2 "" H 4500 2700 50  0001 C CNN
F 3 "" H 4500 2700 50  0001 C CNN
	1    4500 2700
	1    0    0    -1  
$EndComp
$Comp
L GND #PWR05
U 1 1 5A5E364B
P 6100 4100
F 0 "#PWR05" H 6100 3850 50  0001 C CNN
F 1 "GND" H 6100 3950 50  0000 C CNN
F 2 "" H 6100 4100 50  0001 C CNN
F 3 "" H 6100 4100 50  0001 C CNN
	1    6100 4100
	0    -1   -1   0   
$EndComp
$Comp
L GND #PWR06
U 1 1 5A5E3667
P 4550 4100
F 0 "#PWR06" H 4550 3850 50  0001 C CNN
F 1 "GND" H 4550 3950 50  0000 C CNN
F 2 "" H 4550 4100 50  0001 C CNN
F 3 "" H 4550 4100 50  0001 C CNN
	1    4550 4100
	0    1    1    0   
$EndComp
Text GLabel 4500 2100 0    60   Input ~ 0
SS0
Text GLabel 5000 4500 0    60   Output ~ 0
SS0
Wire Wire Line
	4550 2100 4500 2100
Text GLabel 5000 4400 0    60   BiDi ~ 0
MOSI/SIO0
Text GLabel 6100 2700 2    60   BiDi ~ 0
MOSI/SIO0
Text GLabel 5000 4300 0    60   BiDi ~ 0
MISO/SIO1
Text GLabel 4500 2300 0    60   BiDi ~ 0
MISO/SIO1
Text GLabel 5000 4200 0    60   Output ~ 0
SCK
Text GLabel 6100 2500 2    60   Input ~ 0
SCK
Wire Wire Line
	6100 2500 6050 2500
Wire Wire Line
	6100 2700 6050 2700
Wire Wire Line
	4550 2300 4500 2300
Text GLabel 5600 4400 2    60   BiDi ~ 0
#HOLD/SIO3
Text GLabel 6100 2300 2    60   BiDi ~ 0
#HOLD/SIO3
Wire Wire Line
	6100 2300 6050 2300
Text GLabel 5600 4300 2    60   BiDi ~ 0
SIO2
Text GLabel 4500 2500 0    60   BiDi ~ 0
SIO2
Wire Wire Line
	4550 2500 4500 2500
Wire Wire Line
	4550 2700 4500 2700
$Comp
L +3V3 #PWR07
U 1 1 5A5E3856
P 7950 1800
F 0 "#PWR07" H 7950 1650 50  0001 C CNN
F 1 "+3V3" H 7950 1940 50  0000 C CNN
F 2 "" H 7950 1800 50  0001 C CNN
F 3 "" H 7950 1800 50  0001 C CNN
	1    7950 1800
	1    0    0    -1  
$EndComp
$Comp
L GND #PWR08
U 1 1 5A5E3867
P 7950 2200
F 0 "#PWR08" H 7950 1950 50  0001 C CNN
F 1 "GND" H 7950 2050 50  0000 C CNN
F 2 "" H 7950 2200 50  0001 C CNN
F 3 "" H 7950 2200 50  0001 C CNN
	1    7950 2200
	1    0    0    -1  
$EndComp
$Comp
L C C1
U 1 1 5A5E3878
P 7950 2000
F 0 "C1" H 7975 2100 50  0000 L CNN
F 1 "10n" H 7975 1900 50  0000 L CNN
F 2 "Capacitors_THT:C_Disc_D7.5mm_W2.5mm_P5.00mm" H 7988 1850 50  0001 C CNN
F 3 "" H 7950 2000 50  0001 C CNN
	1    7950 2000
	1    0    0    -1  
$EndComp
$Comp
L +3V3 #PWR09
U 1 1 5A5E3960
P 8450 1800
F 0 "#PWR09" H 8450 1650 50  0001 C CNN
F 1 "+3V3" H 8450 1940 50  0000 C CNN
F 2 "" H 8450 1800 50  0001 C CNN
F 3 "" H 8450 1800 50  0001 C CNN
	1    8450 1800
	1    0    0    -1  
$EndComp
$Comp
L GND #PWR010
U 1 1 5A5E3974
P 8450 2200
F 0 "#PWR010" H 8450 1950 50  0001 C CNN
F 1 "GND" H 8450 2050 50  0000 C CNN
F 2 "" H 8450 2200 50  0001 C CNN
F 3 "" H 8450 2200 50  0001 C CNN
	1    8450 2200
	1    0    0    -1  
$EndComp
$Comp
L PWR_FLAG #FLG011
U 1 1 5A5E3987
P 8650 1800
F 0 "#FLG011" H 8650 1875 50  0001 C CNN
F 1 "PWR_FLAG" H 8650 1950 50  0000 C CNN
F 2 "" H 8650 1800 50  0001 C CNN
F 3 "" H 8650 1800 50  0001 C CNN
	1    8650 1800
	1    0    0    -1  
$EndComp
Wire Wire Line
	8650 1800 8450 1800
$Comp
L PWR_FLAG #FLG012
U 1 1 5A5E39BE
P 8450 2150
F 0 "#FLG012" H 8450 2225 50  0001 C CNN
F 1 "PWR_FLAG" H 8450 2300 50  0000 C CNN
F 2 "" H 8450 2150 50  0001 C CNN
F 3 "" H 8450 2150 50  0001 C CNN
	1    8450 2150
	1    0    0    -1  
$EndComp
Wire Wire Line
	8450 2200 8450 2150
NoConn ~ 5550 4500
NoConn ~ 5550 4200
$Comp
L Conn_02x06_Odd_Even J1
U 1 1 5A5E3C5E
P 5250 4200
F 0 "J1" H 5300 4500 50  0000 C CNN
F 1 "Conn_02x06_Odd_Even" H 5300 3800 50  0000 C CNN
F 2 "Pin_Headers:Pin_Header_Angled_2x06_Pitch2.54mm" H 5250 4200 50  0001 C CNN
F 3 "" H 5250 4200 50  0001 C CNN
	1    5250 4200
	1    0    0    -1  
$EndComp
Wire Wire Line
	5050 4200 5000 4200
Wire Wire Line
	5050 4100 4550 4100
Wire Wire Line
	5050 4300 5000 4300
Wire Wire Line
	5050 4400 5000 4400
Wire Wire Line
	5050 4500 5000 4500
Wire Wire Line
	5600 4400 5550 4400
Wire Wire Line
	5600 4300 5550 4300
Wire Wire Line
	7950 1850 7950 1800
Wire Wire Line
	7950 2150 7950 2200
Wire Wire Line
	6100 4100 5550 4100
Connection ~ 4550 2100
Connection ~ 5050 4500
$EndSCHEMATC
