0077
0620
1c66
0000
000a
0000
000e
0000
0012
0000
0016
0000
001a
0000
0040
0000
0000
4107
0000
0000
002e
005f
002e
8935
025e
0000
0036
0000
003a
0000
003e
0000
13b6
0002
e5ce
0002
17a6
0c8e
8704
0cce
65ce
77ac
1787
45ce
ff80
1582
2097
0040
0609
0a37
1756
15f7
0001
1754
1dc6
175a
15e6
0852
1066
1081
15c0
009b
1066
890a
8902
15c0
0096
8936
8904
8902
0bd6
0201
894e
1581
0087
5245
4f52
2052
2020
2020
2020
5441
4c20
4e49
2045
0000
013e
017c
04ca
103c
1320
1346
1376
13ea
148e
1522
1540
1568
15fe
16c8
16d4
1676
173e
1738
19a6
19e4
19b6
195e
16ec
19b2
1c0e
13fe
141e
0186
0118
0294
03ae
0390
01a4
03a6
0456
0408
029e
02e0
031e
02ae
0388
035e
03fa
03d4
04e6
0464
04f2
097c
0500
050c
0c08
02c2
02d2
1e0a
2097
0030
050d
2097
0039
0602
00b4
0087
2097
0041
0505
2097
005a
0602
00af
0087
00af
00b2
0087
1066
15c1
ff74
0bf7
1676
0303
1dc1
1678
010e
0ab7
1666
2dd7
1662
0048
0705
10a6
1026
8902
1580
1582
0bf7
1656
0306
0ab7
1658
8bc9
80fc
90b1
0002
1581
0087
15f7
fffe
1638
15c0
0843
9402
03f8
8900
01fc
0bf7
162a
020a
25c3
1760
8605
15c2
005c
8900
0ac3
0102
15c3
1760
0bf7
1610
031f
0a37
160e
1dc2
160e
2097
ff70
0202
0a37
fdb0
8a8a
0ab7
1602
0bca
8142
8bca
80fa
1c82
0002
03ea
45c2
ff80
a097
0010
032f
a5c2
000d
0209
8902
15c2
000a
010f
0a37
fd80
15c2
ff70
01e6
a5c2
007f
03c9
a5c2
0060
0725
a5c2
0015
0312
8900
9093
a097
000a
0304
20d7
17af
87c8
8919
15c1
1760
15f7
0001
159c
55f7
0040
fd46
0087
95c2
005e
8900
95c2
0055
8900
8902
01b4
15f7
0040
fd2e
0a26
15e6
062e
10a6
0113
8907
0a37
156a
15f7
0001
1568
0bd6
0077
03ec
10a6
9dc2
fd0e
45c2
ff80
a097
0010
0302
1582
0002
1de6
154a
15f7
0001
1544
15c2
005e
8900
15c2
0050
8900
15b7
1534
15f7
0001
1530
01ed
9442
a5c2
0020
03fc
0087
a257
003a
0304
a457
000a
02fa
0ac1
0087
0a37
1506
0bf7
1500
0304
1dc5
14fa
0a37
14f6
0087
894a
0a00
894a
1140
894a
894a
894a
0087
1080
894a
10c0
894a
1100
894a
0087
1126
1144
65c4
0014
2106
860c
0bf7
14c6
0206
1177
14c0
0a85
0c85
00a1
0cc5
1015
1584
0087
8901
12c0
4380
2004
0313
45c0
1fff
25c0
4000
0212
65c3
0010
0106
0bc3
030c
2146
86ef
1066
1026
20c6
86eb
20c5
87ea
0a03
1580
1581
0bc3
0087
0605
65c3
0002
65c3
0004
01f1
0bc0
0302
0bd3
01ed
9cc0
0002
9cc1
0003
8952
6003
01f2
45c0
ff00
45c1
ff00
0a80
0a81
1126
10e6
890e
1583
1584
0bc1
0206
2017
2400
8603
8958
00af
0087
00b2
0087
10c1
1042
6101
0104
894e
1043
1042
8942
2045
8602
9453
01fc
10c5
1081
0087
a457
000a
02fd
0087
1dc1
1400
8942
2045
860b
1026
1066
8908
1581
1002
1580
2002
0302
06f4
00af
0087
00af
00b2
0087
893a
8938
030e
850d
45c2
ffc0
1084
00c4
0c84
0c84
893a
8938
0202
5084
893a
00af
0087
00b2
0087
0bc0
05e6
2017
00ff
06e3
00b4
0087
893a
8938
020d
0ac1
8908
1026
893a
25c2
002c
0208
8908
0bc0
0305
1004
1583
0087
0a26
01f5
0a04
01fa
15f7
0001
1388
0077
00e6
15f7
0001
137c
1dc5
136e
0a85
0a37
136c
0a37
1374
0a37
135e
0077
019c
1144
6004
1183
e5c3
0038
20c4
0087
10e6
895e
851f
a257
002c
0221
09f7
0042
893a
1026
895e
841b
8920
811a
1582
1f84
0000
45c4
ff00
2004
0613
1066
1081
1026
1100
0a80
890e
6580
8958
1581
6380
0bd0
1583
0087
09f7
000a
1002
0a00
01e8
890b
890d
8920
81fd
1f84
0002
00c4
45c4
ff00
2004
06f6
0087
e5c6
0008
1180
1dc1
12dc
890a
1180
0bd0
8a36
0007
8936
65c6
0008
0087
00a1
0cc0
1026
0cc0
6580
0087
1dc3
12c0
0a83
0c83
00a1
0cc3
0087
893a
1084
00c4
893a
5084
0087
10e6
10a6
1da6
0004
1136
0006
2146
8601
0087
8901
894e
8946
10c0
0230
1dc3
1286
0bc4
0232
1144
0bf7
128c
023e
94c2
a097
0060
0511
e5c2
0060
15c0
0796
1081
0ac1
0504
a417
0024
02fd
01fa
9402
a097
0024
03ea
8900
01fa
a097
000a
0302
8900
01e3
8902
20c4
87e0
0bf7
1248
0306
0a02
15c1
0040
8900
0ac1
02fd
0077
00be
1126
893c
1584
2045
82cb
1043
2100
0707
1100
10e6
893c
0206
1583
2045
82c5
8942
1044
01c3
1583
2045
82bf
01fa
0077
0076
894e
8946
1dc1
11f2
0bc4
0201
10c4
1126
10e6
8942
2045
860a
1066
8908
1581
200e
05f8
2036
0002
0602
893e
01f4
2596
0131
894e
893c
020b
893e
0109
09f7
fc9e
a5c2
003a
0350
a5c2
000a
0301
8907
0bf7
11ac
0325
0bf7
11a8
0303
2077
11a2
0101
2045
864c
09f7
0d02
1037
118e
013c
1dc5
118a
0a85
0a37
1188
1dc6
1198
0a37
1186
0a37
1188
0a37
1172
15f7
0001
117c
8902
0a37
1174
0a37
1166
15c0
083e
8936
0a37
116a
8940
893a
2097
000a
03f9
15c1
1760
8908
a257
000a
03bd
1043
15c0
0796
0a02
a4d7
0020
03fd
a8d0
0205
0a83
a217
0024
0318
01f6
a417
0024
02fd
a217
0024
0310
1043
0a82
01ed
0bf7
1122
02c6
09f7
fbee
e5c2
0060
8105
0cc2
007a
0810
0077
0190
8903
65c2
0060
9091
1044
92d1
a4d7
000a
02fc
a097
0063
0335
2097
006d
021d
1101
893a
a097
0054
0212
893a
a097
0048
020e
893a
a097
0045
020a
893a
a097
004e
0206
893a
0ac1
1044
8938
0307
01b6
a097
000a
0318
a097
003a
02e4
1101
a257
0022
0308
a457
003a
03ed
a857
000a
030a
0a81
01f5
0a81
a257
0022
03fa
a257
000a
02f9
8933
0a81
1043
15c1
1760
893a
8938
0302
0ac1
01aa
894e
15c1
1760
e043
10e6
8908
0bc0
031e
2017
1fff
061b
893c
0201
893e
1583
894e
10c0
8944
8603
8901
6005
0108
2045
86fc
1142
6005
1144
98a4
2042
83fd
15c2
1760
9291
a497
000a
02fc
0077
fe70
8921
494c
5453
4c24
5445
5224
4145
2444
4552
244d
5552
244e
4552
5453
524f
2445
4552
5554
4e52
4424
5441
2441
4944
244d
4544
454c
4554
5024
4952
544e
4724
534f
4255
4724
544f
244f
4649
4624
524f
4e24
5845
2454
4e49
5550
2454
4153
4556
5324
4f54
2450
4e45
2444
4544
2446
4c4f
2444
4152
444e
4d4f
5a49
2445
0024
0520
0c38
0e68
0cd4
0868
08a0
08a6
0cd4
08da
05b8
0d18
0884
088e
0c60
0ec2
0f90
0db0
0430
0846
0846
093c
043a
102c
4552
4441
0d59
000a
8902
15c0
085a
8936
8904
8902
0a37
0f5a
0077
fdf0
5453
504f
4120
2054
494c
454e
0020
894e
0a37
0f42
1dc1
0f40
0a81
15f7
1747
07ae
15f7
0001
0f34
0077
fd80
1dc0
0f28
55c0
2000
894a
8908
893c
0205
15f7
0001
0f1a
0077
fd7c
8905
0a37
0f14
0147
0a26
15c4
2000
895c
0314
15c0
1fff
894c
0303
10ce
0bd3
01fb
1583
030b
12c0
4100
0a80
15c4
0002
8950
2017
0001
03bf
893c
01de
8909
8964
8517
022d
1126
893a
2097
0028
0211
8908
8954
020e
1026
00ce
893a
a097
002c
0205
8908
8954
0205
500e
893a
2097
0029
0301
891b
1582
1580
1066
894a
1080
894a
1081
00c1
8952
850b
8944
8709
6005
1581
893a
2097
002c
03d4
0ac1
0077
fcba
891d
8923
8960
2117
464e
021b
893a
8938
0318
8517
55c2
6000
1080
894a
893a
2097
0028
020f
8956
850d
1100
894a
2097
0029
0208
893a
2097
003d
0204
1040
894a
8948
01dd
891f
0a00
894a
15e6
ffff
8944
8771
893a
2097
002b
0308
2097
002d
0206
1080
0a02
0a03
0a04
0108
893a
2097
0028
0207
0a26
0ab5
fffe
01ea
8962
1026
01f5
0ac1
1966
09f7
00c2
1595
10a6
893a
15c0
0a73
a802
0307
2017
0a6d
82fb
0a00
0ac1
1582
0102
1080
01fc
0bce
072f
1066
15c1
0a73
a840
02fe
0c81
1055
15c1
0a73
a876
0002
02fd
0c81
1055
1581
2965
05d6
1015
15c0
0a73
a80e
02fe
e5c0
0a6e
0cc0
65c0
0a74
1015
0bd6
1180
8962
1066
1181
0bd1
1942
1966
09fa
0000
1580
1581
65c6
0006
1582
1583
1584
0bce
06d1
2017
0029
0308
0bc0
06b3
0be5
0203
0bd6
00af
0087
890f
0be5
0203
0bd6
00b2
0087
0bce
05fb
0bd6
0ad5
01ab
8901
2900
2d2b
2f2a
005e
148e
1522
15fe
1568
17cc
8937
1066
893a
8938
850f
0212
1581
e5c6
0006
1180
8906
85f4
1582
1583
1584
0087
1402
1403
1404
0087
2097
002e
03ef
0139
2097
0046
033b
15e6
ffc0
4382
1080
8958
8958
893a
8938
852c
032b
4382
6080
8958
8958
893a
8938
8524
0323
4582
6080
15c3
0bdc
24c0
0304
20d7
0bf2
87fb
016a
893a
2097
0028
0266
1ce6
0014
895e
8413
1580
8962
1002
1180
1066
1001
e5c6
0006
1180
09ca
1582
1583
1584
1581
65c6
0008
0087
0bd6
014f
2397
1e84
021e
01e9
893a
2097
004e
0247
893a
8938
8544
0343
895c
0347
0a00
55c2
6000
1084
894c
033b
0bd3
14c4
14e6
895c
894c
0217
893a
2097
0028
02e0
1126
895e
8501
890f
1580
1166
894a
0a00
894a
8968
1066
1d81
0004
895e
85f4
1581
1585
2596
0087
24d3
1580
14e6
14e6
14e6
10e6
1026
893a
2097
0028
021e
895e
84e3
1040
1d81
0002
1121
10e1
10a1
1581
1026
895e
85d9
1581
1580
15a0
15a0
15a0
0bd6
0087
1581
8964
8503
0302
0077
fed2
89f7
0a02
0a03
0a04
0087
65c6
000a
01f2
6182
115f
07ee
1cc0
3ee3
056b
62a6
2f9c
5d1c
613a
1cb6
1a10
1a72
1ab0
18b0
17f4
1538
1ba2
16fa
1004
1552
1e84
8956
8512
0ac1
0a00
895c
030d
894c
030b
2397
08dc
030b
0bd3
a257
0028
0206
0a81
1126
895a
1584
0bc0
0087
0bd3
10c0
0087
8964
8510
0202
1100
8966
1026
893a
2097
003d
0208
895e
8507
1580
1090
10d0
1110
0077
f996
8911
890f
895e
85fd
8962
8960
2097
003e
0305
2097
003d
0302
0ac1
8a04
15c2
0ca8
2112
0304
2097
0cb4
87fb
8913
65c2
f356
0cc2
65c2
0cb4
10a6
895e
85e3
1066
1181
2451
8962
1180
891c
007e
0008
3c3e
3c3d
3c00
3e3d
3e00
3d00
0213
0109
0711
0107
050f
0105
040d
0103
060b
0101
0309
65c6
0006
1581
65c6
0008
8942
0ac1
0077
f916
65c6
0006
1581
65c6
0008
8960
2117
5448
020d
8960
2117
454e
0210
893a
0ac1
8938
8503
020b
0077
fb8a
0077
f994
2117
474f
0204
8960
2117
544f
03f5
8915
0a26
15c0
001c
8944
8746
893a
a097
002c
031c
a097
003b
032a
a097
0022
032b
a097
003a
0333
a097
000a
0330
0bce
0522
0ac1
895e
851f
1066
09f7
047c
1180
8936
65c6
0014
1581
15ce
ffff
01dc
1dc0
0a54
2017
0038
0502
8902
010a
0b00
0603
65c0
000e
01fc
95c2
0020
8900
0ac0
06fd
15ce
0001
01c8
8917
9442
8900
a257
000a
03fa
a257
0022
02f8
0a81
0a0e
01bc
0bd6
0601
8902
0ac1
0077
f844
8901
0a26
09f7
0080
8401
8925
0a26
1066
15c2
003f
8900
8940
09f7
002a
8512
060d
050e
1581
0bd6
0bd6
02fe
0ac1
0bf7
09d6
0202
95c9
000a
0077
f80a
89f5
01e9
89f3
01e7
89f1
01e5
1184
2514
0bd4
0bd4
02fe
0be4
1900
0315
1126
8906
8514
1584
a257
002c
0308
a257
003a
0307
a257
000a
0304
00b2
0087
0a81
01ed
1900
03fb
00b8
0087
00af
0087
0bd6
01f4
8964
8514
0202
1100
8966
1582
1026
15c0
0004
8944
870d
10a6
893a
a097
002c
03f0
a097
003a
0304
a097
000a
0301
00b2
0087
8901
15e6
0001
0a26
09f7
ffc4
8401
8927
0a26
1066
1dc1
093a
0203
1dc1
092e
0116
a257
000a
0313
09f7
ff64
8517
050b
1077
0920
1581
0bd6
0bd6
02fe
0bd6
03fe
0ac1
0077
f748
0bd4
0a14
0bcc
02fd
895c
a5d1
0067
03e6
2043
87fb
8929
892b
8956
2097
003d
024f
0a00
1126
895c
894c
0203
1100
8966
0102
10c0
2410
1026
0a00
895c
55c4
4000
894c
0307
1126
1066
15c4
0010
8950
1581
1584
1100
894a
1dc0
08ae
894a
895e
1380
1090
10d0
1110
8960
2117
544f
0229
895e
8968
a257
0053
020b
8960
2117
5354
0220
8960
2117
4550
021c
895e
8968
0106
0a02
15c3
4000
15c4
8001
01f8
1380
1066
1141
e5c1
000c
1066
891c
0306
050b
1581
0bf1
0008
050b
0101
0bd6
1581
2596
0077
f68a
892d
1581
0bf1
0008
05f7
1581
0bd6
895c
a457
006f
0303
2043
87fb
892f
8956
210e
02f7
0bd6
0ac1
01ea
0a00
8956
1126
895c
894c
0329
10e6
55c4
4000
895c
894c
0323
1066
24d3
10c1
65c1
0006
1d80
0002
10e6
2410
1026
8910
1580
1383
10c1
0bf3
0008
8003
891c
0611
0102
891c
050e
1580
0bd6
1026
0be0
1200
893c
8948
1044
1581
1380
1126
2410
01af
8931
1581
65c1
0006
1d80
0002
2410
8912
1581
2596
01c4
1026
1dc0
001e
1dc1
001c
890e
45c0
8000
1037
0010
1001
1380
891e
1580
e5f0
000f
0004
0087
1747
0103
1df7
0798
fff6
55f7
0001
fff0
0077
f5b6
1166
1026
0a10
0a10
0a08
0a26
0a26
0a26
893a
a5c2
0045
033c
a5c2
002d
034a
a5c2
002b
0344
a5c2
002e
033b
8938
0255
e5c2
0030
1066
35f6
0004
0002
021b
e5c6
0006
1180
1081
891e
1d80
000e
15c1
11b0
8918
8556
1d80
000e
1181
8910
35f6
0008
0008
0302
0af6
000a
65c6
0006
1581
55ce
0001
0134
10a6
1d83
0008
15c5
000a
0a02
0a04
20d7
03d4
0640
8932
6583
10f6
0006
01ed
35ce
0004
0231
55ce
0004
45ce
0001
011d
35ce
000c
0229
55ce
0008
0117
45ce
0100
0101
55ce
0100
35ce
0004
0210
35ce
0001
020b
35ce
0018
0218
55ce
0010
35ce
0100
0304
55ce
0040
0101
0118
019a
35ce
0001
02fb
3397
0020
0208
55ce
0020
35ce
0100
03f4
55ce
0080
01f1
55ce
0002
01ed
65c6
0008
1581
01f9
2596
01f7
1066
35f6
0040
0002
0304
1d80
0008
1001
8914
35f6
0080
0002
0307
0b36
0006
8404
55f6
0002
0002
0116
6db6
0004
0006
0312
0509
1d80
0008
15c1
11b0
8918
0af6
0006
06f8
0108
1d80
0008
15c1
11b0
8916
0ab6
0006
05f8
1581
0ac1
1584
65c6
0006
1585
35c4
0002
0301
00b2
0087
0000
5000
8004
0000
4000
8001
0000
7a12
8014
4000
4c4b
8018
0000
4000
8000
15c0
000a
0a26
0ac0
06fd
8962
15f6
3020
0008
95f6
0020
000a
0bc3
0366
0606
1180
1001
8914
95f6
002d
0008
15c1
11bc
1180
891c
060c
15c0
11c2
1181
891c
050e
15c1
11b0
1180
8916
0ab6
0006
01f4
15c1
11b0
1180
8918
0af6
0006
01e8
15c1
11c8
1180
8910
e5f6
801f
0004
0cb6
0002
0c0e
0ab6
0004
02fa
1180
65c0
000e
1181
1026
890c
1580
65c0
0003
a5c8
0020
0303
0ab6
0006
0101
0a80
65f6
0007
0006
15c1
0008
1002
65c2
0007
0ac1
a5e2
0030
03fc
1184
65c4
0009
25f6
0008
0006
0728
25f6
fff8
0006
0424
1043
0b03
6d83
0006
65c3
0007
051d
1d83
0006
050d
0613
95d4
002e
9414
2002
83fd
95d4
0020
8a0c
65c6
0008
1d87
0012
95d4
002e
95d4
0030
0a83
05fc
01ef
9414
0ac3
06fd
2002
83e8
01ec
95d4
002e
9414
2002
83fd
95d4
0045
65c6
0006
1381
1180
65c0
000c
1026
1126
890a
1584
1580
a417
0020
03fd
a817
002d
0302
95d4
0020
9414
a217
0020
02fc
95d4
0020
8a0c
0bd6
1d87
0012
0a00
09f7
ef6e
09f7
edee
020b
e5c2
0030
0cc0
6002
0cc0
0cc0
6080
35c0
e000
03f1
8921
0ac1
0087
1026
0a26
1066
0402
0a76
0002
1181
e5c6
000c
1180
890c
1181
1d80
0010
65c1
0005
15c2
0007
9450
0ac2
06fd
65c6
0012
0087
1166
1026
0a26
1443
1242
0404
0b02
0b03
0b82
0a8e
15c5
000a
0a04
15e6
ffff
0a00
0a01
8934
1066
5080
50c0
0bc0
02f8
1185
0a84
0bd5
04fd
0ac4
15c3
000b
e103
0ac3
1d40
0002
0bc3
0704
95d0
0020
0ac3
01fa
0bcd
0303
95d0
002d
0102
95d0
0020
65ce
0030
9590
0bce
04fb
95c8
0020
65c6
0006
1585
0087
1166
1003
1045
0a02
0a04
8932
10c0
1081
1585
0087
0a00
0a01
15e6
0021
0c00
0c01
0c02
0c03
8603
6141
0b40
6100
0ace
02f6
0bd6
0087
15e6
0020
1126
1166
0b36
0002
0b0e
0bb6
0002
6381
0b40
6d80
0002
8725
0a26
0c43
0c42
0c41
0c40
0bce
0308
0a0e
6d81
0002
0b40
0b4e
6d80
0004
0104
6141
0b40
0b4e
6100
0b4e
0bce
0301
0a83
0af6
0006
06e7
0c03
8704
6141
0b40
6100
00a1
0c43
65c6
0008
00a2
0087
65c6
0006
89fb
00b2
0087
1166
1026
1466
1466
1266
1402
1401
1200
200e
830a
1184
1003
1300
10d4
1043
1301
10d4
1083
1302
10d4
e380
0319
8003
2017
ffe1
0405
1d85
0002
1d83
0004
011c
2017
fff0
0607
65c0
0010
1042
0a01
0bc2
8001
0a41
0bc0
0304
0c81
0c02
0a80
02fc
1d85
0002
1d83
0004
6083
0b45
8511
6045
8403
0c05
0c03
0a8e
1d80
0006
1001
10d0
1150
1390
1040
65c6
0008
1585
0077
0166
6045
87f2
01ee
1004
e5c6
0006
1180
8914
1100
1181
8910
65c6
0006
0087
891a
0bf1
0002
0408
1442
1443
0b03
0b02
0b83
1090
10d0
1450
0087
891a
15c1
11b6
0bf0
0002
0603
0303
8914
0087
891a
0087
1166
1026
0a26
1445
1444
0bc4
033f
0404
0b04
0b05
0b84
0a8e
1403
1402
0373
0604
0b02
0b03
0b82
0ace
1241
0b01
6201
0c01
0c41
842c
65c1
8000
1066
10c1
1080
0a02
0a03
0c00
0c01
0c02
8934
0b04
0b05
0b84
0cc1
0c40
6141
0b40
6100
0503
65c3
0001
0b42
00a1
0c02
0c03
0a8e
0bf6
0002
0303
0b02
0b03
0b82
1d80
0004
10d0
1090
1588
2596
1585
2820
1001
0077
008e
2596
89fb
1585
00b2
0087
1166
1026
1445
1444
1241
0a26
0bc4
032f
8004
0b04
0b05
0b84
0ace
1403
1402
0327
8004
0b02
0b03
0b82
0a8e
6201
0c01
0c41
84e2
65c1
8000
1066
8932
0a8e
0c42
0c41
0c40
8502
0ace
01fa
0c00
0c01
0b41
0b40
8402
0a8e
01f9
1582
0bd6
0303
0b00
0b01
0b80
1583
1053
1013
108b
1585
0087
0a00
0a01
0a02
0bd6
01f5
0a10
1050
15c8
800f
2820
1001
1444
1442
1443
10c1
0bc2
0204
0bc4
0202
0a03
0110
0a83
0ac3
0cc4
0c42
84fc
8608
0207
0bc4
0204
00b1
0c02
0a83
0a81
00b1
0c02
0c04
1110
1090
10d0
20c1
8202
00a2
0087
00b2
0087
1042
1004
1494
1494
1494
0087
1066
892c
1180
1d81
0006
8912
1d81
0002
65c6
0008
0b01
0087
1582
65c0
0006
1826
1826
1826
1087
1443
1442
1244
8011
2861
2117
801f
86df
e5c4
801f
0c82
0c03
0a84
05fc
1001
10d0
1090
15c8
801f
1040
01af
0bc2
8004
15c1
11b6
0077
fe10
0a10
0a10
0a08
0087
1442
1443
1244
2117
800f
820b
0308
2117
8000
8708
e5c4
800f
0c83
0a84
02fd
10c0
0087
89f9
0a00
0087
4450
2d50
3131
4220
5341
4349
202c
4556
5352
4f49
204e
3030
4137
0a0d
4f2a
0020
0000
0000
0000
0000
0000
0000
0000
0000
0000
0000
0000
0000
0000
0000
0000
0000
0000
0000
0000
0000
df3c
00ec
1e0e
1c78
0000
0000
0000
0000
0000
001f
0000
0000
0001
0000
0000
0000
069d
17b0
1066
1026
e5c6
0006
1001
1180
09f7
0018
1d81
0008
1180
8918
1d80
0006
1181
09f7
00c2
65c6
000a
0087
892e
0bf0
0002
0604
89ff
65c6
0004
0087
1001
0bd1
020c
2457
4000
0209
2457
8001
0206
0a10
0a10
0a10
65c6
0004
0087
1c26
0004
65ce
8000
15f0
8000
0004
1381
e5c6
0006
1180
891e
1d80
0008
892c
15c1
188c
8912
1180
15c1
188c
8910
1d80
000e
1181
8916
15c4
1898
1d80
000e
15c3
0004
8928
892a
1d80
000e
15c1
1946
8912
65c6
0006
1180
15c1
1892
8918
1181
1d80
0008
8910
65c6
000c
00a2
0087
7996
5a82
8000
0bfe
58b9
8000
aa4a
4d0c
7fff
0f09
6650
7fff
6cdb
5555
8000
fffa
7fff
8001
892e
2c17
0004
800e
82a1
15c1
1940
8926
1d80
0002
15c1
1946
8918
1d80
0002
892c
892c
1180
15c1
194c
8910
1180
1001
8914
0ab6
000a
1d80
000e
1001
8918
1d80
000e
15c1
1958
8910
15c0
1952
892c
1180
1d81
0014
8916
1180
1001
65c1
0006
8910
1181
1040
65c0
000c
8916
65c6
000c
1180
15c1
11b6
8910
1180
1001
8918
1181
1d80
0008
891a
1d80
0008
6db0
0006
0004
0077
ff44
1d94
5c55
8001
0bfe
58b9
7fff
3ee7
9fe1
8004
4375
b4c6
800a
2d78
782e
8006
e5f6
0002
0002
1d80
0008
1d81
000a
1026
8918
65f6
0006
000c
1380
1d81
000c
8910
0bf6
0004
0307
1380
1d81
0008
8918
0af6
0004
01ef
1380
1d81
0006
8918
0bd6
1583
65c6
0016
10e6
0087
1583
0a26
1066
1026
891a
10c7
1583
01fa
1581
892c
1066
1126
10e6
1026
1001
8918
1580
1583
1584
1581
892c
1126
1026
11a6
65ce
0006
11a6
65ce
000e
10e6
1047
1d80
0002
8918
15b6
0002
1381
8922
1026
1381
e5c6
0006
1180
891e
1181
1d80
0008
8912
65c6
0006
1da6
0004
0087
8924
0bf0
0002
0405
1001
8914
0ab6
0004
0104
0203
65c6
0006
0087
15c1
1a86
8926
1582
45c2
fffc
0cc2
65c2
1a7e
1287
15c1
11b6
1380
8912
1380
1001
8914
0104
15c1
11b6
1380
8912
1380
15c4
1a8c
15c3
0006
8928
892a
0bf6
0004
03dd
1380
1001
8914
01d9
8924
15c1
1aaa
8910
1380
01ca
1a56
1a3e
1a46
1a4e
c1b9
517c
8000
1fbe
8d4e
7fee
face
53ff
7ff4
dc8c
b34b
7ff9
eefe
519a
7ffd
0c75
ad51
8000
ed4e
6487
8001
0a26
8924
0bf0
0002
0358
0404
0ab6
0006
1001
8914
15c1
11b6
1380
891c
040f
0ab6
0004
15c0
11b6
892c
1180
1d81
0006
8916
1181
1d80
0006
891a
65c6
0006
15c1
1b72
1380
891c
0704
0a26
0a26
0a26
0118
15c0
1b7e
892c
1d80
0006
892c
15c1
1b78
8918
1d80
000c
15c1
11b6
8912
1180
15c1
1b78
8910
1d80
000c
1181
8916
65c6
0006
1d80
0006
15c4
1b84
15c3
0005
8928
892a
1181
1d80
0006
8910
65c6
0006
0bf6
0004
0307
1380
15c1
1aaa
8912
1380
1001
8914
0bf6
0006
0303
1380
1001
8914
65c6
0008
00a2
0087
517c
4498
7fff
eba0
6ed9
8001
48de
4305
8000
9720
6132
7ffd
8fcf
b76e
7ffe
dba6
6661
7ffe
b20a
aaaa
7fff
fffe
7fff
8000
8924
0bf0
0002
032e
0404
0ab6
0004
1001
8914
0a36
0002
1380
2410
65c8
8000
0c88
0b76
0002
1226
15c8
8000
1d80
0002
892c
15c1
1c3e
8918
1d80
0008
15c1
1c38
8910
8930
8930
8930
6db0
0006
0004
65c6
0008
0bf6
0002
0303
15c1
1c32
8918
0bf6
0004
0301
89fd
65c6
0006
00a2
0087
1180
0bd0
892c
1180
1d81
0010
8916
1181
1d80
0010
8910
1d80
0010
0af0
0004
65c6
0006
0087
7996
5a82
8001
abba
6ad4
7fff
6e42
4b8a
8000
1dc6
fb82
8902
15f7
1c56
e3b4
1dc1
e314
0102
0ab7
02da
15f7
1c66
e3a4
29a6
15c1
e000
2596
1849
e5c1
00c2
1077
02c0
15c0
1760
896a
a5c2
004c
031b
a5c2
0044
031d
a5c2
0045
0318
a5c2
0048
031a
a5c2
000a
0343
8938
0218
0ac1
8908
1037
0286
893a
a5c2
000a
0339
a5c2
002c
02f9
893a
01e2
0ab7
0272
01f4
0ab7
0270
0ab7
026a
01ef
0af7
0268
01ec
0a37
025a
0a37
0258
0a37
0256
0a37
0254
0a37
0252
15c0
1ec4
896a
10f7
0244
0705
15c0
1e9c
896a
10f7
023a
0bf7
023c
0205
15c0
1ee8
896a
10f7
0226
15c0
1f01
896a
10f7
0222
15c0
1f1f
8936
8940
8908
1037
020c
6df7
0214
0208
0bf7
0204
0707
15f7
ff70
fa96
15f7
ff74
fa92
0106
15f7
ff68
fa88
15f7
ff6c
fa84
1dc1
01ec
1dc0
01de
030c
00c0
0cc0
0cc0
0cc0
45c0
07ff
2017
2000
87b6
2001
8201
1001
1046
15f7
0006
e298
1077
fa5a
15c1
1c44
0bf7
01b4
071b
0a37
ee5e
0a37
ee5c
0a37
ee5a
0a37
ee5e
15c1
1a10
0bf7
019c
070e
0a37
ee4a
0a37
ee48
15c0
005e
0c80
15c1
17cc
15c2
1e26
1491
0ac0
06fd
0bf7
017c
041e
15f7
1dc2
e270
1077
fa02
0000
1dc1
f9fc
15c0
0018
0c80
15c2
1e84
1077
ee32
1077
ed4c
15c3
000e
6043
10f7
e24a
1491
0ac0
06fd
1dc6
e23c
11b7
f9da
0102
0a37
edfa
1077
f9b8
1dc5
f9b4
95d5
000a
0a37
f9bc
0077
e840
8936
8940
893a
0a03
a097
0059
0202
0ac3
0087
a097
004e
02fc
0a83
0087
1026
892c
1040
892c
15c1
11b6
1d80
000c
891a
1180
1026
1026
65ce
0006
1d80
0002
1001
09df
16fa
0bf6
0006
0605
050e
65c6
0012
00a2
0087
1381
1d80
0010
8918
15c1
11b6
1d80
0002
8912
01ee
1381
1d80
0010
8916
15c1
11b6
1d80
0002
8910
01e4
65c6
0008
1040
1581
17c2
0028
004a
1582
1583
1584
005f
0b18
4f44
5920
554f
5220
5145
4955
4552
4520
5058
4f20
2052
4f4c
2047
4628
4f4c
5441
4e49
2047
295e
003f
4f44
5920
554f
4e20
4545
2044
4854
2045
5845
4554
444e
4445
4620
4e55
5443
4f49
534e
003f
4948
4847
532d
4550
4445
5220
4145
4544
2f52
5550
434e
3f48
5300
5445
5520
2050
4854
2045
5845
4554
4e52
4c41
4620
4e55
5443
4f49
3f4e
4d00
4d45
524f
3f59
0000
0000
0000
0000
0000
0000
df3c
0000
0000
0000
0000
1fc0
0000
11c6
29a6
11c5
65c5
004a
0a01
17ce
ff78
0c0e
8702
0a0e
0103
0cce
0201
104e
0a00
09cd
8ac3
02fc
09cd
09f7
003c
1102
e5c2
0004
25c2
0002
0321
09f7
002c
6384
1101
09cd
0404
8bc0
03eb
0000
01e9
90d1
01f8
1dc3
006a
8a8b
8bcb
80fe
9cc3
0002
60c0
45c3
ff00
0ac2
0087
15b7
0026
09cd
10c4
09cd
00c3
50c4
1dc7
0018
09f7
ffea
09cd
8bc0
02e2
0c84
8602
0000
01c0
0cc4
6384
004c
1fbe
15f7
00ea
0010
15f7
01f5
001c
0077
ff5a
1dc1
0016
15c2
00ea
0a89
8bc9
80fe
9c72
0002
1f00
0ab7
ffee
01f5
ff68
